Data/TEK0093.CSV

Record Length,2.500000e+03,,  -0.000001560000,   0.00000,
Sample Interval,4.000000e-09,,  -0.000001556000,   0.00000,
Trigger Point,3.900000000000e+02,,  -0.000001552000,   0.00000,
,,,  -0.000001548000,   0.00000,
,,,  -0.000001544000,   0.00000,
,,,  -0.000001540000,   0.00000,
Source,CH1,,  -0.000001536000,   0.00000,
Vertical Units,V,,  -0.000001532000,   0.00000,
Vertical Scale,5.000000e-01,,  -0.000001528000,   0.00000,
Vertical Offset,2.600000e-01,,  -0.000001524000,   0.00000,
Horizontal Units,s,,  -0.000001520000,   0.00000,
Horizontal Scale,1.000000e-06,,  -0.000001516000,   0.00000,
Pt Fmt,Y,,  -0.000001512000,   0.00000,
Yzero,0.000000e+00,,  -0.000001508000,   0.00000,
Probe Atten,1.000000e+01,,  -0.000001504000,   0.00000,
Model Number,TDS1012B,,  -0.000001500000,   0.00000,
Serial Number,C010224,,  -0.000001496000,   0.00000,
Firmware Version,FV:v21.20,,  -0.000001492000,   0.00000,
,,,-00.000001488000,   0.00000,
,,,-00.000001484000,   0.00000,
,,,-00.000001480000,   0.00000,
,,,-00.000001476000,   0.00000,
,,,-00.000001472000,   0.00000,
,,,-00.000001468000,   0.00000,
,,,-00.000001464000,   0.00000,
,,,-00.000001460000,   0.00000,
,,,-00.000001456000,   0.00000,
,,,-00.000001452000,   0.00000,
,,,-00.000001448000,   0.00000,
,,,-00.000001444000,   0.00000,
,,,-00.000001440000,   0.00000,
,,,-00.000001436000,   0.00000,
,,,-00.000001432000,   0.00000,
,,,-00.000001428000,   0.00000,
,,,-00.000001424000,   0.00000,
,,,-00.000001420000,   0.00000,
,,,-00.000001416000,   0.00000,
,,,-00.000001412000,   0.00000,
,,,-00.000001408000,   0.00000,
,,,-00.000001404000,   0.00000,
,,,-00.000001400000,   0.00000,
,,,-00.000001396000,   0.00000,
,,,-00.000001392000,   0.00000,
,,,-00.000001388000,   0.00000,
,,,-00.000001384000,   0.00000,
,,,-00.000001380000,   0.00000,
,,,-00.000001376000,   0.00000,
,,,-00.000001372000,   0.00000,
,,,-00.000001368000,   0.00000,
,,,-00.000001364000,   0.00000,
,,,-00.000001360000,   0.00000,
,,,-00.000001356000,   0.00000,
,,,-00.000001352000,   0.00000,
,,,-00.000001348000,   0.00000,
,,,-00.000001344000,   0.00000,
,,,-00.000001340000,   0.00000,
,,,-00.000001336000,   0.00000,
,,,-00.000001332000,   0.00000,
,,,-00.000001328000,   0.00000,
,,,-00.000001324000,   0.00000,
,,,-00.000001320000,   0.00000,
,,,-00.000001316000,   0.00000,
,,,-00.000001312000,   0.00000,
,,,-00.000001308000,   0.00000,
,,,-00.000001304000,   0.00000,
,,,-00.000001300000,   0.00000,
,,,-00.000001296000,   0.00000,
,,,-00.000001292000,   0.00000,
,,,-00.000001288000,   0.00000,
,,,-00.000001284000,   0.00000,
,,,-00.000001280000,   0.00000,
,,,-00.000001276000,   0.00000,
,,,-00.000001272000,   0.00000,
,,,-00.000001268000,   0.00000,
,,,-00.000001264000,   0.00000,
,,,-00.000001260000,   0.00000,
,,,-00.000001256000,   0.00000,
,,,-00.000001252000,   0.00000,
,,,-00.000001248000,   0.00000,
,,,-00.000001244000,   0.00000,
,,,-00.000001240000,   0.00000,
,,,-00.000001236000,   0.00000,
,,,-00.000001232000,   0.00000,
,,,-00.000001228000,   0.00000,
,,,-00.000001224000,   0.00000,
,,,-00.000001220000,   0.00000,
,,,-00.000001216000,   0.00000,
,,,-00.000001212000,   0.00000,
,,,-00.000001208000,   0.00000,
,,,-00.000001204000,   0.00000,
,,,-00.000001200000,   0.00000,
,,,-00.000001196000,   0.00000,
,,,-00.000001192000,   0.00000,
,,,-00.000001188000,   0.00000,
,,,-00.000001184000,   0.00000,
,,,-00.000001180000,   0.00000,
,,,-00.000001176000,   0.00000,
,,,-00.000001172000,   0.00000,
,,,-00.000001168000,   0.00000,
,,,-00.000001164000,   0.00000,
,,,-00.000001160000,   0.00000,
,,,-00.000001156000,   0.00000,
,,,-00.000001152000,   0.00000,
,,,-00.000001148000,   0.00000,
,,,-00.000001144000,   0.00000,
,,,-00.000001140000,   0.00000,
,,,-00.000001136000,   0.00000,
,,,-00.000001132000,   0.00000,
,,,-00.000001128000,   0.00000,
,,,-00.000001124000,   0.00000,
,,,-00.000001120000,   0.00000,
,,,-00.000001116000,   0.00000,
,,,-00.000001112000,   0.00000,
,,,-00.000001108000,   0.00000,
,,,-00.000001104000,   0.00000,
,,,-00.000001100000,   0.00000,
,,,-00.000001096000,   0.00000,
,,,-00.000001092000,   0.00000,
,,,-00.000001088000,   0.00000,
,,,-00.000001084000,   0.00000,
,,,-00.000001080000,   0.00000,
,,,-00.000001076000,   0.00000,
,,,-00.000001072000,   0.00000,
,,,-00.000001068000,   0.00000,
,,,-00.000001064000,   0.00000,
,,,-00.000001060000,   0.00000,
,,,-00.000001056000,   0.00000,
,,,-00.000001052000,   0.00000,
,,,-00.000001048000,   0.00000,
,,,-00.000001044000,   0.00000,
,,,-00.000001040000,   0.00000,
,,,-00.000001036000,   0.00000,
,,,-00.000001032000,   0.00000,
,,,-00.000001028000,   0.00000,
,,,-00.000001024000,   0.00000,
,,,-00.000001020000,   0.00000,
,,,-00.000001016000,   0.00000,
,,,-00.000001012000,   0.00000,
,,,-00.000001008000,   0.00000,
,,,-00.000001004000,   0.00000,
,,,-00.000001000000,   0.00000,
,,,-00.000000996000,   0.00000,
,,,-00.000000992000,   0.00000,
,,,-00.000000988000,   0.00000,
,,,-00.000000984000,   0.00000,
,,,-00.000000980000,   0.00000,
,,,-00.000000976000,   0.00000,
,,,-00.000000972000,   0.00000,
,,,-00.000000968000,   0.00000,
,,,-00.000000964000,   0.00000,
,,,-00.000000960000,   0.00000,
,,,-00.000000956000,   0.00000,
,,,-00.000000952000,   0.00000,
,,,-00.000000948000,   0.00000,
,,,-00.000000944000,   0.00000,
,,,-00.000000940000,   0.00000,
,,,-00.000000936000,   0.00000,
,,,-00.000000932000,   0.00000,
,,,-00.000000928000,   0.00000,
,,,-00.000000924000,   0.00000,
,,,-00.000000920000,   0.00000,
,,,-00.000000916000,   0.00000,
,,,-00.000000912000,   0.00000,
,,,-00.000000908000,   0.00000,
,,,-00.000000904000,   0.00000,
,,,-00.000000900000,   0.00000,
,,,-00.000000896000,   0.00000,
,,,-00.000000892000,   0.00000,
,,,-00.000000888000,   0.00000,
,,,-00.000000884000,   0.00000,
,,,-00.000000880000,   0.00000,
,,,-00.000000876000,   0.00000,
,,,-00.000000872000,   0.00000,
,,,-00.000000868000,   0.00000,
,,,-00.000000864000,   0.00000,
,,,-00.000000860000,   0.00000,
,,,-00.000000856000,   0.00000,
,,,-00.000000852000,   0.00000,
,,,-00.000000848000,   0.00000,
,,,-00.000000844000,   0.00000,
,,,-00.000000840000,   0.00000,
,,,-00.000000836000,   0.00000,
,,,-00.000000832000,   0.00000,
,,,-00.000000828000,   0.00000,
,,,-00.000000824000,   0.00000,
,,,-00.000000820000,   0.00000,
,,,-00.000000816000,   0.00000,
,,,-00.000000812000,   0.00000,
,,,-00.000000808000,   0.00000,
,,,-00.000000804000,   0.00000,
,,,-00.000000800000,   0.00000,
,,,-00.000000796000,   0.00000,
,,,-00.000000792000,   0.00000,
,,,-00.000000788000,   0.00000,
,,,-00.000000784000,   0.00000,
,,,-00.000000780000,   0.00000,
,,,-00.000000776000,   0.00000,
,,,-00.000000772000,   0.00000,
,,,-00.000000768000,   0.00000,
,,,-00.000000764000,   0.00000,
,,,-00.000000760000,   0.00000,
,,,-00.000000756000,   0.00000,
,,,-00.000000752000,   0.00000,
,,,-00.000000748000,   0.00000,
,,,-00.000000744000,   0.00000,
,,,-00.000000740000,   0.00000,
,,,-00.000000736000,   0.00000,
,,,-00.000000732000,   0.00000,
,,,-00.000000728000,   0.00000,
,,,-00.000000724000,   0.00000,
,,,-00.000000720000,   0.00000,
,,,-00.000000716000,   0.00000,
,,,-00.000000712000,   0.00000,
,,,-00.000000708000,   0.00000,
,,,-00.000000704000,   0.00000,
,,,-00.000000700000,   0.00000,
,,,-00.000000696000,   0.00000,
,,,-00.000000692000,   0.00000,
,,,-00.000000688000,   0.00000,
,,,-00.000000684000,   0.00000,
,,,-00.000000680000,   0.00000,
,,,-00.000000676000,   0.00000,
,,,-00.000000672000,   0.00000,
,,,-00.000000668000,   0.00000,
,,,-00.000000664000,   0.00000,
,,,-00.000000660000,   0.00000,
,,,-00.000000656000,   0.00000,
,,,-00.000000652000,   0.00000,
,,,-00.000000648000,   0.00000,
,,,-00.000000644000,   0.00000,
,,,-00.000000640000,   0.00000,
,,,-00.000000636000,   0.00000,
,,,-00.000000632000,   0.00000,
,,,-00.000000628000,   0.00000,
,,,-00.000000624000,   0.00000,
,,,-00.000000620000,   0.00000,
,,,-00.000000616000,   0.00000,
,,,-00.000000612000,   0.00000,
,,,-00.000000608000,   0.00000,
,,,-00.000000604000,   0.00000,
,,,-00.000000600000,   0.00000,
,,,-00.000000596000,   0.00000,
,,,-00.000000592000,   0.00000,
,,,-00.000000588000,   0.00000,
,,,-00.000000584000,   0.00000,
,,,-00.000000580000,   0.00000,
,,,-00.000000576000,   0.00000,
,,,-00.000000572000,   0.00000,
,,,-00.000000568000,   0.00000,
,,,-00.000000564000,   0.00000,
,,,-00.000000560000,   0.00000,
,,,-00.000000556000,   0.00000,
,,,-00.000000552000,   0.00000,
,,,-00.000000548000,   0.00000,
,,,-00.000000544000,   0.00000,
,,,-00.000000540000,   0.00000,
,,,-00.000000536000,   0.00000,
,,,-00.000000532000,   0.00000,
,,,-00.000000528000,   0.00000,
,,,-00.000000524000,   0.00000,
,,,-00.000000520000,   0.00000,
,,,-00.000000516000,   0.00000,
,,,-00.000000512000,   0.00000,
,,,-00.000000508000,   0.00000,
,,,-00.000000504000,   0.00000,
,,,-00.000000500000,   0.00000,
,,,-00.000000496000,   0.00000,
,,,-00.000000492000,   0.00000,
,,,-00.000000488000,   0.00000,
,,,-00.000000484000,   0.00000,
,,,-00.000000480000,   0.00000,
,,,-00.000000476000,   0.00000,
,,,-00.000000472000,   0.00000,
,,,-00.000000468000,   0.00000,
,,,-00.000000464000,   0.00000,
,,,-00.000000460000,   0.00000,
,,,-00.000000456000,   0.00000,
,,,-00.000000452000,   0.00000,
,,,-00.000000448000,   0.00000,
,,,-00.000000444000,   0.00000,
,,,-00.000000440000,   0.00000,
,,,-00.000000436000,   0.00000,
,,,-00.000000432000,   0.00000,
,,,-00.000000428000,   0.00000,
,,,-00.000000424000,   0.00000,
,,,-00.000000420000,   0.00000,
,,,-00.000000416000,   0.00000,
,,,-00.000000412000,   0.00000,
,,,-00.000000408000,   0.00000,
,,,-00.000000404000,   0.00000,
,,,-00.000000400000,   0.00000,
,,,-00.000000396000,   0.00000,
,,,-00.000000392000,   0.00000,
,,,-00.000000388000,   0.00000,
,,,-00.000000384000,   0.00000,
,,,-00.000000380000,   0.00000,
,,,-00.000000376000,   0.00000,
,,,-00.000000372000,   0.00000,
,,,-00.000000368000,   0.00000,
,,,-00.000000364000,   0.00000,
,,,-00.000000360000,   0.00000,
,,,-00.000000356000,   0.00000,
,,,-00.000000352000,   0.00000,
,,,-00.000000348000,   0.00000,
,,,-00.000000344000,   0.00000,
,,,-00.000000340000,   0.00000,
,,,-00.000000336000,   0.00000,
,,,-00.000000332000,   0.00000,
,,,-00.000000328000,   0.00000,
,,,-00.000000324000,   0.00000,
,,,-00.000000320000,   0.00000,
,,,-00.000000316000,   0.00000,
,,,-00.000000312000,   0.00000,
,,,-00.000000308000,   0.00000,
,,,-00.000000304000,   0.00000,
,,,-00.000000300000,   0.00000,
,,,-00.000000296000,   0.00000,
,,,-00.000000292000,   0.00000,
,,,-00.000000288000,   0.00000,
,,,-00.000000284000,   0.00000,
,,,-00.000000280000,   0.00000,
,,,-00.000000276000,   0.00000,
,,,-00.000000272000,   0.00000,
,,,-00.000000268000,   0.00000,
,,,-00.000000264000,   0.00000,
,,,-00.000000260000,   0.00000,
,,,-00.000000256000,   0.00000,
,,,-00.000000252000,   0.00000,
,,,-00.000000248000,   0.00000,
,,,-00.000000244000,   0.00000,
,,,-00.000000240000,   0.00000,
,,,-00.000000236000,   0.00000,
,,,-00.000000232000,   0.00000,
,,,-00.000000228000,   0.00000,
,,,-00.000000224000,   0.00000,
,,,-00.000000220000,   0.00000,
,,,-00.000000216000,   0.00000,
,,,-00.000000212000,   0.00000,
,,,-00.000000208000,   0.00000,
,,,-00.000000204000,   0.00000,
,,,-00.000000200000,   0.00000,
,,,-00.000000196000,   0.00000,
,,,-00.000000192000,   0.00000,
,,,-00.000000188000,   0.00000,
,,,-00.000000184000,   0.00000,
,,,-00.000000180000,   0.00000,
,,,-00.000000176000,   0.00000,
,,,-00.000000172000,   0.00000,
,,,-00.000000168000,   0.00000,
,,,-00.000000164000,   0.00000,
,,,-00.000000160000,   0.00000,
,,,-00.000000156000,   0.00000,
,,,-00.000000152000,   0.00000,
,,,-00.000000148000,   0.00000,
,,,-00.000000144000,   0.00000,
,,,-00.000000140000,   0.00000,
,,,-00.000000136000,   0.00000,
,,,-00.000000132000,   0.00000,
,,,-00.000000128000,   0.00000,
,,,-00.000000124000,   0.00000,
,,,-00.000000120000,   0.00000,
,,,-00.000000116000,   0.00000,
,,,-00.000000112000,   0.00000,
,,,-00.000000108000,   0.00000,
,,,-00.000000104000,   0.00000,
,,,-00.000000100000,   0.00000,
,,,-00.000000096000,   0.00000,
,,,-00.000000092000,   0.00000,
,,,-00.000000088000,   0.00000,
,,,-00.000000084000,   0.00000,
,,,-00.000000080000,   0.00000,
,,,-00.000000076000,   0.00000,
,,,-00.000000072000,   0.00000,
,,,-00.000000068000,   0.00000,
,,,-00.000000064000,   0.00000,
,,,-00.000000060000,   0.00000,
,,,-00.000000056000,   0.00000,
,,,-00.000000052000,   0.00000,
,,,-00.000000048000,   0.00000,
,,,-00.000000044000,   0.00000,
,,,-00.000000040000,   0.00000,
,,,-00.000000036000,   0.00000,
,,,-00.000000032000,   0.00000,
,,,-00.000000028000,   0.00000,
,,,-00.000000024000,   0.00000,
,,,-00.000000020000,   0.00000,
,,,-00.000000016000,   0.00000,
,,,-00.000000012000,   0.00000,
,,,-00.000000008000,   0.00000,
,,,-00.000000004000,   0.00000,
,,,-00.000000000000,   0.00000,
,,,00.000000004000,   0.00000,
,,,00.000000008000,   0.00000,
,,,00.000000012000,   0.00000,
,,,00.000000016000,   0.00000,
,,,00.000000020000,   0.00000,
,,,00.000000024000,   0.00000,
,,,00.000000028000,   0.00000,
,,,00.000000032000,   0.00000,
,,,00.000000036000,   0.02000,
,,,00.000000040000,   0.00000,
,,,00.000000044000,   0.00000,
,,,00.000000048000,   0.02000,
,,,00.000000052000,   0.02000,
,,,00.000000056000,   0.00000,
,,,00.000000060000,   0.00000,
,,,00.000000064000,   0.02000,
,,,00.000000068000,   0.00000,
,,,00.000000072000,   0.00000,
,,,00.000000076000,   0.02000,
,,,00.000000080000,   0.00000,
,,,00.000000084000,   0.00000,
,,,00.000000088000,   0.00000,
,,,00.000000092000,   0.00000,
,,,00.000000096000,   0.00000,
,,,00.000000100000,   0.00000,
,,,00.000000104000,   0.00000,
,,,00.000000108000,   0.00000,
,,,00.000000112000,   0.00000,
,,,00.000000116000,   0.00000,
,,,00.000000120000,   0.00000,
,,,00.000000124000,   0.00000,
,,,00.000000128000,   0.00000,
,,,00.000000132000,   0.00000,
,,,00.000000136000,   0.00000,
,,,00.000000140000,   0.00000,
,,,00.000000144000,   0.00000,
,,,00.000000148000,   0.00000,
,,,00.000000152000,   0.00000,
,,,00.000000156000,   0.00000,
,,,00.000000160000,   0.00000,
,,,00.000000164000,   0.00000,
,,,00.000000168000,   0.00000,
,,,00.000000172000,   0.00000,
,,,00.000000176000,   0.00000,
,,,00.000000180000,   0.00000,
,,,00.000000184000,   0.00000,
,,,00.000000188000,   0.00000,
,,,00.000000192000,   0.00000,
,,,00.000000196000,   0.00000,
,,,00.000000200000,   0.00000,
,,,00.000000204000,   0.00000,
,,,00.000000208000,   0.00000,
,,,00.000000212000,   0.00000,
,,,00.000000216000,   0.00000,
,,,00.000000220000,   0.00000,
,,,00.000000224000,   0.00000,
,,,00.000000228000,   0.00000,
,,,00.000000232000,   0.00000,
,,,00.000000236000,   0.00000,
,,,00.000000240000,   0.00000,
,,,00.000000244000,   0.00000,
,,,00.000000248000,   0.00000,
,,,00.000000252000,   0.00000,
,,,00.000000256000,   0.00000,
,,,00.000000260000,   0.00000,
,,,00.000000264000,   0.00000,
,,,00.000000268000,   0.00000,
,,,00.000000272000,   0.00000,
,,,00.000000276000,   0.00000,
,,,00.000000280000,   0.00000,
,,,00.000000284000,   0.00000,
,,,00.000000288000,   0.02000,
,,,00.000000292000,   0.02000,
,,,00.000000296000,   0.02000,
,,,00.000000300000,   0.02000,
,,,00.000000304000,   0.02000,
,,,00.000000308000,   0.02000,
,,,00.000000312000,   0.02000,
,,,00.000000316000,   0.02000,
,,,00.000000320000,   0.02000,
,,,00.000000324000,   0.02000,
,,,00.000000328000,   0.02000,
,,,00.000000332000,   0.02000,
,,,00.000000336000,   0.04000,
,,,00.000000340000,   0.04000,
,,,00.000000344000,   0.04000,
,,,00.000000348000,   0.04000,
,,,00.000000352000,   0.04000,
,,,00.000000356000,   0.04000,
,,,00.000000360000,   0.06000,
,,,00.000000364000,   0.06000,
,,,00.000000368000,   0.06000,
,,,00.000000372000,   0.06000,
,,,00.000000376000,   0.06000,
,,,00.000000380000,   0.08000,
,,,00.000000384000,   0.08000,
,,,00.000000388000,   0.08000,
,,,00.000000392000,   0.08000,
,,,00.000000396000,   0.10000,
,,,00.000000400000,   0.10000,
,,,00.000000404000,   0.10000,
,,,00.000000408000,   0.12000,
,,,00.000000412000,   0.12000,
,,,00.000000416000,   0.12000,
,,,00.000000420000,   0.14000,
,,,00.000000424000,   0.14000,
,,,00.000000428000,   0.14000,
,,,00.000000432000,   0.16000,
,,,00.000000436000,   0.16000,
,,,00.000000440000,   0.16000,
,,,00.000000444000,   0.18000,
,,,00.000000448000,   0.18000,
,,,00.000000452000,   0.20000,
,,,00.000000456000,   0.20000,
,,,00.000000460000,   0.20000,
,,,00.000000464000,   0.22000,
,,,00.000000468000,   0.22000,
,,,00.000000472000,   0.24000,
,,,00.000000476000,   0.24000,
,,,00.000000480000,   0.26000,
,,,00.000000484000,   0.26000,
,,,00.000000488000,   0.26000,
,,,00.000000492000,   0.28000,
,,,00.000000496000,   0.28000,
,,,00.000000500000,   0.30000,
,,,00.000000504000,   0.30000,
,,,00.000000508000,   0.32000,
,,,00.000000512000,   0.32000,
,,,00.000000516000,   0.34000,
,,,00.000000520000,   0.34000,
,,,00.000000524000,   0.36000,
,,,00.000000528000,   0.36000,
,,,00.000000532000,   0.36000,
,,,00.000000536000,   0.38000,
,,,00.000000540000,   0.38000,
,,,00.000000544000,   0.40000,
,,,00.000000548000,   0.40000,
,,,00.000000552000,   0.42000,
,,,00.000000556000,   0.42000,
,,,00.000000560000,   0.44000,
,,,00.000000564000,   0.44000,
,,,00.000000568000,   0.46000,
,,,00.000000572000,   0.46000,
,,,00.000000576000,   0.48000,
,,,00.000000580000,   0.48000,
,,,00.000000584000,   0.50000,
,,,00.000000588000,   0.50000,
,,,00.000000592000,   0.50000,
,,,00.000000596000,   0.52000,
,,,00.000000600000,   0.52000,
,,,00.000000604000,   0.54000,
,,,00.000000608000,   0.54000,
,,,00.000000612000,   0.56000,
,,,00.000000616000,   0.56000,
,,,00.000000620000,   0.56000,
,,,00.000000624000,   0.58000,
,,,00.000000628000,   0.58000,
,,,00.000000632000,   0.60000,
,,,00.000000636000,   0.60000,
,,,00.000000640000,   0.60000,
,,,00.000000644000,   0.62000,
,,,00.000000648000,   0.62000,
,,,00.000000652000,   0.64000,
,,,00.000000656000,   0.64000,
,,,00.000000660000,   0.64000,
,,,00.000000664000,   0.66000,
,,,00.000000668000,   0.66000,
,,,00.000000672000,   0.66000,
,,,00.000000676000,   0.68000,
,,,00.000000680000,   0.68000,
,,,00.000000684000,   0.68000,
,,,00.000000688000,   0.68000,
,,,00.000000692000,   0.70000,
,,,00.000000696000,   0.70000,
,,,00.000000700000,   0.70000,
,,,00.000000704000,   0.72000,
,,,00.000000708000,   0.72000,
,,,00.000000712000,   0.72000,
,,,00.000000716000,   0.72000,
,,,00.000000720000,   0.72000,
,,,00.000000724000,   0.74000,
,,,00.000000728000,   0.74000,
,,,00.000000732000,   0.74000,
,,,00.000000736000,   0.74000,
,,,00.000000740000,   0.74000,
,,,00.000000744000,   0.74000,
,,,00.000000748000,   0.74000,
,,,00.000000752000,   0.76000,
,,,00.000000756000,   0.76000,
,,,00.000000760000,   0.76000,
,,,00.000000764000,   0.76000,
,,,00.000000768000,   0.76000,
,,,00.000000772000,   0.76000,
,,,00.000000776000,   0.74000,
,,,00.000000780000,   0.74000,
,,,00.000000784000,   0.74000,
,,,00.000000788000,   0.74000,
,,,00.000000792000,   0.74000,
,,,00.000000796000,   0.74000,
,,,00.000000800000,   0.72000,
,,,00.000000804000,   0.72000,
,,,00.000000808000,   0.72000,
,,,00.000000812000,   0.72000,
,,,00.000000816000,   0.70000,
,,,00.000000820000,   0.70000,
,,,00.000000824000,   0.70000,
,,,00.000000828000,   0.68000,
,,,00.000000832000,   0.68000,
,,,00.000000836000,   0.66000,
,,,00.000000840000,   0.66000,
,,,00.000000844000,   0.64000,
,,,00.000000848000,   0.62000,
,,,00.000000852000,   0.62000,
,,,00.000000856000,   0.60000,
,,,00.000000860000,   0.58000,
,,,00.000000864000,   0.58000,
,,,00.000000868000,   0.56000,
,,,00.000000872000,   0.54000,
,,,00.000000876000,   0.52000,
,,,00.000000880000,   0.50000,
,,,00.000000884000,   0.48000,
,,,00.000000888000,   0.46000,
,,,00.000000892000,   0.44000,
,,,00.000000896000,   0.42000,
,,,00.000000900000,   0.40000,
,,,00.000000904000,   0.38000,
,,,00.000000908000,   0.36000,
,,,00.000000912000,   0.34000,
,,,00.000000916000,   0.32000,
,,,00.000000920000,   0.30000,
