Data/TEK0103.CSV

Record Length,2.500000e+03,,  -0.000000200000,   0.00000,
Sample Interval,4.000000e-09,,  -0.000000196000,   0.00000,
Trigger Point,5.000000000000e+01,,  -0.000000192000,   0.00000,
,,,  -0.000000188000,   0.00000,
,,,  -0.000000184000,   0.00000,
,,,  -0.000000180000,   0.00000,
Source,CH1,,  -0.000000176000,   0.00000,
Vertical Units,V,,  -0.000000172000,   0.00000,
Vertical Scale,5.000000e-01,,  -0.000000168000,   0.00000,
Vertical Offset,2.600000e-01,,  -0.000000164000,   0.00000,
Horizontal Units,s,,  -0.000000160000,   0.00000,
Horizontal Scale,1.000000e-06,,  -0.000000156000,   0.00000,
Pt Fmt,Y,,  -0.000000152000,   0.00000,
Yzero,0.000000e+00,,  -0.000000148000,   0.00000,
Probe Atten,1.000000e+01,,  -0.000000144000,   0.00000,
Model Number,TDS1012B,,  -0.000000140000,   0.00000,
Serial Number,C010224,,  -0.000000136000,   0.00000,
Firmware Version,FV:v21.20,,  -0.000000132000,   0.00000,
,,,-00.000000128000,   0.00000,
,,,-00.000000124000,   0.00000,
,,,-00.000000120000,   0.00000,
,,,-00.000000116000,   0.00000,
,,,-00.000000112000,   0.00000,
,,,-00.000000108000,   0.00000,
,,,-00.000000104000,   0.00000,
,,,-00.000000100000,   0.00000,
,,,-00.000000096000,   0.00000,
,,,-00.000000092000,   0.00000,
,,,-00.000000088000,   0.00000,
,,,-00.000000084000,   0.00000,
,,,-00.000000080000,   0.00000,
,,,-00.000000076000,   0.00000,
,,,-00.000000072000,   0.00000,
,,,-00.000000068000,   0.00000,
,,,-00.000000064000,   0.00000,
,,,-00.000000060000,   0.00000,
,,,-00.000000056000,   0.00000,
,,,-00.000000052000,   0.00000,
,,,-00.000000048000,   0.00000,
,,,-00.000000044000,   0.00000,
,,,-00.000000040000,   0.00000,
,,,-00.000000036000,   0.00000,
,,,-00.000000032000,   0.00000,
,,,-00.000000028000,   0.00000,
,,,-00.000000024000,   0.00000,
,,,-00.000000020000,   0.00000,
,,,-00.000000016000,   0.00000,
,,,-00.000000012000,   0.00000,
,,,-00.000000008000,   0.00000,
,,,-00.000000004000,   0.00000,
,,,-00.000000000000,   0.00000,
,,,00.000000004000,   0.00000,
,,,00.000000008000,   0.00000,
,,,00.000000012000,   0.00000,
,,,00.000000016000,   0.00000,
,,,00.000000020000,   0.00000,
,,,00.000000024000,   0.00000,
,,,00.000000028000,   0.00000,
,,,00.000000032000,   0.00000,
,,,00.000000036000,   0.00000,
,,,00.000000040000,   0.00000,
,,,00.000000044000,   0.00000,
,,,00.000000048000,   0.02000,
,,,00.000000052000,   0.00000,
,,,00.000000056000,   0.00000,
,,,00.000000060000,   0.00000,
,,,00.000000064000,   0.00000,
,,,00.000000068000,   0.00000,
,,,00.000000072000,   0.00000,
,,,00.000000076000,   0.02000,
,,,00.000000080000,   0.00000,
,,,00.000000084000,   0.00000,
,,,00.000000088000,   0.00000,
,,,00.000000092000,   0.00000,
,,,00.000000096000,   0.00000,
,,,00.000000100000,   0.00000,
,,,00.000000104000,   0.00000,
,,,00.000000108000,   0.00000,
,,,00.000000112000,   0.00000,
,,,00.000000116000,   0.00000,
,,,00.000000120000,   0.00000,
,,,00.000000124000,   0.00000,
,,,00.000000128000,   0.00000,
,,,00.000000132000,   0.00000,
,,,00.000000136000,   0.00000,
,,,00.000000140000,   0.00000,
,,,00.000000144000,   0.00000,
,,,00.000000148000,   0.00000,
,,,00.000000152000,   0.00000,
,,,00.000000156000,   0.00000,
,,,00.000000160000,   0.00000,
,,,00.000000164000,   0.00000,
,,,00.000000168000,   0.00000,
,,,00.000000172000,   0.00000,
,,,00.000000176000,   0.00000,
,,,00.000000180000,   0.00000,
,,,00.000000184000,   0.00000,
,,,00.000000188000,   0.00000,
,,,00.000000192000,   0.00000,
,,,00.000000196000,   0.00000,
,,,00.000000200000,   0.00000,
,,,00.000000204000,   0.00000,
,,,00.000000208000,   0.00000,
,,,00.000000212000,   0.00000,
,,,00.000000216000,   0.00000,
,,,00.000000220000,   0.00000,
,,,00.000000224000,   0.00000,
,,,00.000000228000,   0.00000,
,,,00.000000232000,   0.00000,
,,,00.000000236000,   0.00000,
,,,00.000000240000,   0.00000,
,,,00.000000244000,   0.00000,
,,,00.000000248000,   0.00000,
,,,00.000000252000,   0.00000,
,,,00.000000256000,   0.00000,
,,,00.000000260000,   0.00000,
,,,00.000000264000,   0.00000,
,,,00.000000268000,   0.00000,
,,,00.000000272000,   0.00000,
,,,00.000000276000,   0.00000,
,,,00.000000280000,   0.00000,
,,,00.000000284000,   0.00000,
,,,00.000000288000,   0.00000,
,,,00.000000292000,   0.00000,
,,,00.000000296000,   0.00000,
,,,00.000000300000,   0.02000,
,,,00.000000304000,   0.02000,
,,,00.000000308000,   0.02000,
,,,00.000000312000,   0.02000,
,,,00.000000316000,   0.02000,
,,,00.000000320000,   0.02000,
,,,00.000000324000,   0.02000,
,,,00.000000328000,   0.02000,
,,,00.000000332000,   0.02000,
,,,00.000000336000,   0.02000,
,,,00.000000340000,   0.02000,
,,,00.000000344000,   0.02000,
,,,00.000000348000,   0.02000,
,,,00.000000352000,   0.04000,
,,,00.000000356000,   0.04000,
,,,00.000000360000,   0.04000,
,,,00.000000364000,   0.04000,
,,,00.000000368000,   0.04000,
,,,00.000000372000,   0.04000,
,,,00.000000376000,   0.06000,
,,,00.000000380000,   0.06000,
,,,00.000000384000,   0.06000,
,,,00.000000388000,   0.06000,
,,,00.000000392000,   0.06000,
,,,00.000000396000,   0.08000,
,,,00.000000400000,   0.08000,
,,,00.000000404000,   0.08000,
,,,00.000000408000,   0.08000,
,,,00.000000412000,   0.10000,
,,,00.000000416000,   0.10000,
,,,00.000000420000,   0.10000,
,,,00.000000424000,   0.10000,
,,,00.000000428000,   0.12000,
,,,00.000000432000,   0.12000,
,,,00.000000436000,   0.12000,
,,,00.000000440000,   0.14000,
,,,00.000000444000,   0.14000,
,,,00.000000448000,   0.14000,
,,,00.000000452000,   0.16000,
,,,00.000000456000,   0.16000,
,,,00.000000460000,   0.16000,
,,,00.000000464000,   0.18000,
,,,00.000000468000,   0.18000,
,,,00.000000472000,   0.18000,
,,,00.000000476000,   0.20000,
,,,00.000000480000,   0.20000,
,,,00.000000484000,   0.22000,
,,,00.000000488000,   0.22000,
,,,00.000000492000,   0.22000,
,,,00.000000496000,   0.24000,
,,,00.000000500000,   0.24000,
,,,00.000000504000,   0.26000,
,,,00.000000508000,   0.26000,
,,,00.000000512000,   0.26000,
,,,00.000000516000,   0.28000,
,,,00.000000520000,   0.28000,
,,,00.000000524000,   0.30000,
,,,00.000000528000,   0.30000,
,,,00.000000532000,   0.32000,
,,,00.000000536000,   0.32000,
,,,00.000000540000,   0.32000,
,,,00.000000544000,   0.34000,
,,,00.000000548000,   0.34000,
,,,00.000000552000,   0.36000,
,,,00.000000556000,   0.36000,
,,,00.000000560000,   0.38000,
,,,00.000000564000,   0.38000,
,,,00.000000568000,   0.38000,
,,,00.000000572000,   0.40000,
,,,00.000000576000,   0.40000,
,,,00.000000580000,   0.42000,
,,,00.000000584000,   0.42000,
,,,00.000000588000,   0.44000,
,,,00.000000592000,   0.44000,
,,,00.000000596000,   0.46000,
,,,00.000000600000,   0.46000,
,,,00.000000604000,   0.48000,
,,,00.000000608000,   0.48000,
,,,00.000000612000,   0.48000,
,,,00.000000616000,   0.50000,
,,,00.000000620000,   0.50000,
,,,00.000000624000,   0.52000,
,,,00.000000628000,   0.52000,
,,,00.000000632000,   0.54000,
,,,00.000000636000,   0.54000,
,,,00.000000640000,   0.56000,
,,,00.000000644000,   0.56000,
,,,00.000000648000,   0.58000,
,,,00.000000652000,   0.58000,
,,,00.000000656000,   0.58000,
,,,00.000000660000,   0.60000,
,,,00.000000664000,   0.60000,
,,,00.000000668000,   0.62000,
,,,00.000000672000,   0.62000,
,,,00.000000676000,   0.64000,
,,,00.000000680000,   0.64000,
,,,00.000000684000,   0.66000,
,,,00.000000688000,   0.66000,
,,,00.000000692000,   0.66000,
,,,00.000000696000,   0.68000,
,,,00.000000700000,   0.68000,
,,,00.000000704000,   0.70000,
,,,00.000000708000,   0.70000,
,,,00.000000712000,   0.72000,
,,,00.000000716000,   0.72000,
,,,00.000000720000,   0.72000,
,,,00.000000724000,   0.74000,
,,,00.000000728000,   0.74000,
,,,00.000000732000,   0.74000,
,,,00.000000736000,   0.76000,
,,,00.000000740000,   0.76000,
,,,00.000000744000,   0.78000,
,,,00.000000748000,   0.78000,
,,,00.000000752000,   0.78000,
,,,00.000000756000,   0.80000,
,,,00.000000760000,   0.80000,
,,,00.000000764000,   0.80000,
,,,00.000000768000,   0.80000,
,,,00.000000772000,   0.82000,
,,,00.000000776000,   0.82000,
,,,00.000000780000,   0.82000,
,,,00.000000784000,   0.82000,
,,,00.000000788000,   0.82000,
,,,00.000000792000,   0.84000,
,,,00.000000796000,   0.84000,
,,,00.000000800000,   0.84000,
,,,00.000000804000,   0.84000,
,,,00.000000808000,   0.84000,
,,,00.000000812000,   0.84000,
,,,00.000000816000,   0.84000,
,,,00.000000820000,   0.84000,
,,,00.000000824000,   0.84000,
,,,00.000000828000,   0.84000,
,,,00.000000832000,   0.84000,
,,,00.000000836000,   0.84000,
,,,00.000000840000,   0.82000,
,,,00.000000844000,   0.82000,
,,,00.000000848000,   0.82000,
,,,00.000000852000,   0.82000,
,,,00.000000856000,   0.82000,
,,,00.000000860000,   0.80000,
,,,00.000000864000,   0.80000,
,,,00.000000868000,   0.80000,
,,,00.000000872000,   0.78000,
,,,00.000000876000,   0.78000,
,,,00.000000880000,   0.76000,
,,,00.000000884000,   0.76000,
,,,00.000000888000,   0.74000,
,,,00.000000892000,   0.74000,
,,,00.000000896000,   0.72000,
,,,00.000000900000,   0.72000,
,,,00.000000904000,   0.70000,
,,,00.000000908000,   0.70000,
,,,00.000000912000,   0.68000,
,,,00.000000916000,   0.66000,
,,,00.000000920000,   0.66000,
,,,00.000000924000,   0.64000,
,,,00.000000928000,   0.62000,
,,,00.000000932000,   0.60000,
,,,00.000000936000,   0.60000,
,,,00.000000940000,   0.58000,
,,,00.000000944000,   0.56000,
,,,00.000000948000,   0.54000,
,,,00.000000952000,   0.52000,
,,,00.000000956000,   0.52000,
,,,00.000000960000,   0.50000,
,,,00.000000964000,   0.48000,
,,,00.000000968000,   0.46000,
,,,00.000000972000,   0.44000,
,,,00.000000976000,   0.42000,
,,,00.000000980000,   0.40000,
,,,00.000000984000,   0.38000,
,,,00.000000988000,   0.36000,
,,,00.000000992000,   0.34000,
,,,00.000000996000,   0.32000,
,,,00.000001000000,   0.30000,
,,,00.000001004000,   0.28000,
,,,00.000001008000,   0.26000,
,,,00.000001012000,   0.24000,
,,,00.000001016000,   0.20000,
,,,00.000001020000,   0.18000,
,,,00.000001024000,   0.16000,
,,,00.000001028000,   0.14000,
,,,00.000001032000,   0.12000,
,,,00.000001036000,   0.10000,
,,,00.000001040000,   0.08000,
,,,00.000001044000,   0.04000,
,,,00.000001048000,   0.02000,
,,,00.000001052000,   0.00000,
,,,00.000001056000,  -0.02000,
,,,00.000001060000,  -0.04000,
,,,00.000001064000,  -0.08000,
,,,00.000001068000,  -0.10000,
,,,00.000001072000,  -0.12000,
,,,00.000001076000,  -0.14000,
,,,00.000001080000,  -0.18000,
,,,00.000001084000,  -0.20000,
,,,00.000001088000,  -0.22000,
,,,00.000001092000,  -0.26000,
,,,00.000001096000,  -0.28000,
,,,00.000001100000,  -0.30000,
,,,00.000001104000,  -0.34000,
,,,00.000001108000,  -0.36000,
,,,00.000001112000,  -0.38000,
,,,00.000001116000,  -0.42000,
,,,00.000001120000,  -0.44000,
,,,00.000001124000,  -0.46000,
,,,00.000001128000,  -0.50000,
,,,00.000001132000,  -0.52000,
,,,00.000001136000,  -0.56000,
,,,00.000001140000,  -0.58000,
,,,00.000001144000,  -0.60000,
,,,00.000001148000,  -0.64000,
,,,00.000001152000,  -0.66000,
,,,00.000001156000,  -0.70000,
,,,00.000001160000,  -0.72000,
,,,00.000001164000,  -0.74000,
,,,00.000001168000,  -0.78000,
,,,00.000001172000,  -0.80000,
,,,00.000001176000,  -0.84000,
,,,00.000001180000,  -0.86000,
,,,00.000001184000,  -0.88000,
,,,00.000001188000,  -0.92000,
,,,00.000001192000,  -0.94000,
,,,00.000001196000,  -0.96000,
,,,00.000001200000,  -1.00000,
,,,00.000001204000,  -1.02000,
,,,00.000001208000,  -1.04000,
,,,00.000001212000,  -1.08000,
,,,00.000001216000,  -1.10000,
,,,00.000001220000,  -1.12000,
,,,00.000001224000,  -1.16000,
,,,00.000001228000,  -1.18000,
,,,00.000001232000,  -1.20000,
,,,00.000001236000,  -1.22000,
,,,00.000001240000,  -1.24000,
,,,00.000001244000,  -1.26000,
,,,00.000001248000,  -1.30000,
,,,00.000001252000,  -1.32000,
,,,00.000001256000,  -1.34000,
,,,00.000001260000,  -1.36000,
,,,00.000001264000,  -1.38000,
,,,00.000001268000,  -1.40000,
,,,00.000001272000,  -1.42000,
,,,00.000001276000,  -1.44000,
,,,00.000001280000,  -1.46000,
,,,00.000001284000,  -1.48000,
,,,00.000001288000,  -1.48000,
,,,00.000001292000,  -1.50000,
,,,00.000001296000,  -1.52000,
,,,00.000001300000,  -1.54000,
,,,00.000001304000,  -1.56000,
,,,00.000001308000,  -1.56000,
,,,00.000001312000,  -1.58000,
,,,00.000001316000,  -1.60000,
,,,00.000001320000,  -1.60000,
,,,00.000001324000,  -1.62000,
,,,00.000001328000,  -1.62000,
,,,00.000001332000,  -1.64000,
,,,00.000001336000,  -1.64000,
,,,00.000001340000,  -1.66000,
,,,00.000001344000,  -1.66000,
,,,00.000001348000,  -1.66000,
,,,00.000001352000,  -1.68000,
,,,00.000001356000,  -1.68000,
,,,00.000001360000,  -1.68000,
,,,00.000001364000,  -1.68000,
,,,00.000001368000,  -1.68000,
,,,00.000001372000,  -1.70000,
,,,00.000001376000,  -1.70000,
,,,00.000001380000,  -1.70000,
,,,00.000001384000,  -1.70000,
,,,00.000001388000,  -1.70000,
,,,00.000001392000,  -1.70000,
,,,00.000001396000,  -1.70000,
,,,00.000001400000,  -1.70000,
,,,00.000001404000,  -1.68000,
,,,00.000001408000,  -1.68000,
,,,00.000001412000,  -1.68000,
,,,00.000001416000,  -1.68000,
,,,00.000001420000,  -1.68000,
,,,00.000001424000,  -1.66000,
,,,00.000001428000,  -1.66000,
,,,00.000001432000,  -1.66000,
,,,00.000001436000,  -1.64000,
,,,00.000001440000,  -1.64000,
,,,00.000001444000,  -1.64000,
,,,00.000001448000,  -1.62000,
,,,00.000001452000,  -1.62000,
,,,00.000001456000,  -1.60000,
,,,00.000001460000,  -1.58000,
,,,00.000001464000,  -1.58000,
,,,00.000001468000,  -1.56000,
,,,00.000001472000,  -1.56000,
,,,00.000001476000,  -1.54000,
,,,00.000001480000,  -1.52000,
,,,00.000001484000,  -1.50000,
,,,00.000001488000,  -1.50000,
,,,00.000001492000,  -1.48000,
,,,00.000001496000,  -1.46000,
,,,00.000001500000,  -1.44000,
,,,00.000001504000,  -1.42000,
,,,00.000001508000,  -1.40000,
,,,00.000001512000,  -1.38000,
,,,00.000001516000,  -1.36000,
,,,00.000001520000,  -1.34000,
,,,00.000001524000,  -1.32000,
,,,00.000001528000,  -1.30000,
,,,00.000001532000,  -1.28000,
,,,00.000001536000,  -1.26000,
,,,00.000001540000,  -1.24000,
,,,00.000001544000,  -1.22000,
,,,00.000001548000,  -1.20000,
,,,00.000001552000,  -1.16000,
,,,00.000001556000,  -1.14000,
,,,00.000001560000,  -1.12000,
,,,00.000001564000,  -1.10000,
,,,00.000001568000,  -1.06000,
,,,00.000001572000,  -1.04000,
,,,00.000001576000,  -1.00000,
,,,00.000001580000,  -0.98000,
,,,00.000001584000,  -0.96000,
,,,00.000001588000,  -0.92000,
,,,00.000001592000,  -0.90000,
,,,00.000001596000,  -0.86000,
,,,00.000001600000,  -0.84000,
,,,00.000001604000,  -0.80000,
,,,00.000001608000,  -0.76000,
,,,00.000001612000,  -0.74000,
,,,00.000001616000,  -0.70000,
,,,00.000001620000,  -0.68000,
,,,00.000001624000,  -0.64000,
,,,00.000001628000,  -0.60000,
,,,00.000001632000,  -0.58000,
,,,00.000001636000,  -0.54000,
,,,00.000001640000,  -0.50000,
,,,00.000001644000,  -0.46000,
,,,00.000001648000,  -0.42000,
,,,00.000001652000,  -0.40000,
,,,00.000001656000,  -0.36000,
,,,00.000001660000,  -0.32000,
,,,00.000001664000,  -0.28000,
,,,00.000001668000,  -0.24000,
,,,00.000001672000,  -0.22000,
,,,00.000001676000,  -0.18000,
,,,00.000001680000,  -0.14000,
,,,00.000001684000,  -0.10000,
,,,00.000001688000,  -0.06000,
,,,00.000001692000,  -0.04000,
,,,00.000001696000,   0.00000,
,,,00.000001700000,   0.04000,
,,,00.000001704000,   0.08000,
,,,00.000001708000,   0.12000,
,,,00.000001712000,   0.16000,
,,,00.000001716000,   0.20000,
,,,00.000001720000,   0.22000,
,,,00.000001724000,   0.26000,
,,,00.000001728000,   0.30000,
,,,00.000001732000,   0.34000,
,,,00.000001736000,   0.36000,
,,,00.000001740000,   0.40000,
,,,00.000001744000,   0.44000,
,,,00.000001748000,   0.48000,
,,,00.000001752000,   0.52000,
,,,00.000001756000,   0.54000,
,,,00.000001760000,   0.58000,
,,,00.000001764000,   0.62000,
,,,00.000001768000,   0.66000,
,,,00.000001772000,   0.68000,
,,,00.000001776000,   0.72000,
,,,00.000001780000,   0.74000,
,,,00.000001784000,   0.78000,
,,,00.000001788000,   0.82000,
,,,00.000001792000,   0.84000,
,,,00.000001796000,   0.88000,
,,,00.000001800000,   0.90000,
,,,00.000001804000,   0.94000,
,,,00.000001808000,   0.96000,
,,,00.000001812000,   1.00000,
,,,00.000001816000,   1.02000,
,,,00.000001820000,   1.06000,
,,,00.000001824000,   1.08000,
,,,00.000001828000,   1.12000,
,,,00.000001832000,   1.14000,
,,,00.000001836000,   1.16000,
,,,00.000001840000,   1.20000,
,,,00.000001844000,   1.22000,
,,,00.000001848000,   1.24000,
,,,00.000001852000,   1.26000,
,,,00.000001856000,   1.30000,
,,,00.000001860000,   1.32000,
,,,00.000001864000,   1.34000,
,,,00.000001868000,   1.36000,
,,,00.000001872000,   1.38000,
,,,00.000001876000,   1.40000,
,,,00.000001880000,   1.44000,
,,,00.000001884000,   1.46000,
,,,00.000001888000,   1.48000,
,,,00.000001892000,   1.50000,
,,,00.000001896000,   1.52000,
,,,00.000001900000,   1.54000,
,,,00.000001904000,   1.54000,
,,,00.000001908000,   1.56000,
,,,00.000001912000,   1.58000,
,,,00.000001916000,   1.60000,
,,,00.000001920000,   1.62000,
,,,00.000001924000,   1.62000,
,,,00.000001928000,   1.64000,
,,,00.000001932000,   1.66000,
,,,00.000001936000,   1.66000,
,,,00.000001940000,   1.68000,
,,,00.000001944000,   1.70000,
,,,00.000001948000,   1.70000,
,,,00.000001952000,   1.72000,
,,,00.000001956000,   1.72000,
,,,00.000001960000,   1.74000,
,,,00.000001964000,   1.74000,
,,,00.000001968000,   1.74000,
,,,00.000001972000,   1.76000,
,,,00.000001976000,   1.76000,
,,,00.000001980000,   1.76000,
,,,00.000001984000,   1.78000,
,,,00.000001988000,   1.78000,
,,,00.000001992000,   1.78000,
,,,00.000001996000,   1.78000,
,,,00.000002000000,   1.78000,
,,,00.000002004000,   1.78000,
,,,00.000002008000,   1.78000,
,,,00.000002012000,   1.78000,
,,,00.000002016000,   1.78000,
,,,00.000002020000,   1.78000,
,,,00.000002024000,   1.78000,
,,,00.000002028000,   1.78000,
,,,00.000002032000,   1.78000,
,,,00.000002036000,   1.78000,
,,,00.000002040000,   1.76000,
,,,00.000002044000,   1.76000,
,,,00.000002048000,   1.76000,
,,,00.000002052000,   1.76000,
,,,00.000002056000,   1.74000,
,,,00.000002060000,   1.74000,
,,,00.000002064000,   1.72000,
,,,00.000002068000,   1.72000,
,,,00.000002072000,   1.70000,
,,,00.000002076000,   1.70000,
,,,00.000002080000,   1.68000,
,,,00.000002084000,   1.68000,
,,,00.000002088000,   1.66000,
,,,00.000002092000,   1.64000,
,,,00.000002096000,   1.64000,
,,,00.000002100000,   1.62000,
,,,00.000002104000,   1.60000,
,,,00.000002108000,   1.58000,
,,,00.000002112000,   1.56000,
,,,00.000002116000,   1.54000,
,,,00.000002120000,   1.52000,
,,,00.000002124000,   1.52000,
,,,00.000002128000,   1.50000,
,,,00.000002132000,   1.48000,
,,,00.000002136000,   1.44000,
,,,00.000002140000,   1.42000,
,,,00.000002144000,   1.40000,
,,,00.000002148000,   1.38000,
,,,00.000002152000,   1.36000,
,,,00.000002156000,   1.34000,
,,,00.000002160000,   1.32000,
,,,00.000002164000,   1.28000,
,,,00.000002168000,   1.26000,
,,,00.000002172000,   1.24000,
,,,00.000002176000,   1.20000,
,,,00.000002180000,   1.18000,
,,,00.000002184000,   1.16000,
,,,00.000002188000,   1.12000,
,,,00.000002192000,   1.10000,
,,,00.000002196000,   1.06000,
,,,00.000002200000,   1.04000,
,,,00.000002204000,   1.02000,
,,,00.000002208000,   0.98000,
,,,00.000002212000,   0.96000,
,,,00.000002216000,   0.92000,
,,,00.000002220000,   0.88000,
,,,00.000002224000,   0.86000,
,,,00.000002228000,   0.82000,
,,,00.000002232000,   0.80000,
,,,00.000002236000,   0.76000,
,,,00.000002240000,   0.72000,
,,,00.000002244000,   0.70000,
,,,00.000002248000,   0.66000,
,,,00.000002252000,   0.62000,
,,,00.000002256000,   0.60000,
,,,00.000002260000,   0.56000,
,,,00.000002264000,   0.52000,
,,,00.000002268000,   0.50000,
,,,00.000002272000,   0.46000,
,,,00.000002276000,   0.42000,
,,,00.000002280000,   0.38000,
,,,00.000002284000,   0.34000,
,,,00.000002288000,   0.32000,
,,,00.000002292000,   0.28000,
,,,00.000002296000,   0.24000,
,,,00.000002300000,   0.20000,
,,,00.000002304000,   0.16000,
,,,00.000002308000,   0.14000,
,,,00.000002312000,   0.10000,
,,,00.000002316000,   0.06000,
,,,00.000002320000,   0.02000,
,,,00.000002324000,  -0.02000,
