Data/TEK0125.CSV

Record Length,2.500000e+03,,   0.000038440000,   0.08000,
Sample Interval,4.000000e-09,,   0.000038444000,   0.00000,
Trigger Point,-9.610000000000e+03,,   0.000038448000,   0.08000,
,,,   0.000038452000,   0.08000,
,,,   0.000038456000,   0.08000,
,,,   0.000038460000,   0.08000,
Source,CH1,,   0.000038464000,   0.08000,
Vertical Units,V,,   0.000038468000,   0.08000,
Vertical Scale,2.000000e+00,,   0.000038472000,   0.08000,
Vertical Offset,4.800000e-01,,   0.000038476000,   0.08000,
Horizontal Units,s,,   0.000038480000,   0.08000,
Horizontal Scale,1.000000e-06,,   0.000038484000,   0.08000,
Pt Fmt,Y,,   0.000038488000,   0.00000,
Yzero,0.000000e+00,,   0.000038492000,   0.08000,
Probe Atten,1.000000e+01,,   0.000038496000,   0.08000,
Model Number,TDS1012B,,   0.000038500000,   0.08000,
Serial Number,C010224,,   0.000038504000,   0.08000,
Firmware Version,FV:v21.20,,   0.000038508000,   0.08000,
,,,0.000038512000,   0.08000,
,,,0.000038516000,   0.08000,
,,,0.000038520000,   0.08000,
,,,0.000038524000,   0.08000,
,,,0.000038528000,   0.08000,
,,,0.000038532000,   0.08000,
,,,0.000038536000,   0.00000,
,,,0.000038540000,   0.08000,
,,,0.000038544000,   0.08000,
,,,0.000038548000,   0.08000,
,,,0.000038552000,   0.08000,
,,,0.000038556000,   0.08000,
,,,0.000038560000,   0.08000,
,,,0.000038564000,   0.08000,
,,,0.000038568000,   0.08000,
,,,0.000038572000,   0.08000,
,,,0.000038576000,   0.08000,
,,,0.000038580000,   0.08000,
,,,0.000038584000,   0.08000,
,,,0.000038588000,   0.08000,
,,,0.000038592000,   0.08000,
,,,0.000038596000,   0.08000,
,,,0.000038600000,   0.08000,
,,,0.000038604000,   0.08000,
,,,0.000038608000,   0.08000,
,,,0.000038612000,   0.08000,
,,,0.000038616000,   0.00000,
,,,0.000038620000,   0.08000,
,,,0.000038624000,   0.08000,
,,,0.000038628000,   0.08000,
,,,0.000038632000,   0.08000,
,,,0.000038636000,   0.08000,
,,,0.000038640000,   0.08000,
,,,0.000038644000,   0.08000,
,,,0.000038648000,   0.08000,
,,,0.000038652000,   0.08000,
,,,0.000038656000,   0.08000,
,,,0.000038660000,   0.08000,
,,,0.000038664000,   0.08000,
,,,0.000038668000,   0.08000,
,,,0.000038672000,   0.08000,
,,,0.000038676000,   0.08000,
,,,0.000038680000,   0.08000,
,,,0.000038684000,   0.08000,
,,,0.000038688000,   0.08000,
,,,0.000038692000,   0.08000,
,,,0.000038696000,   0.08000,
,,,0.000038700000,   0.08000,
,,,0.000038704000,   0.08000,
,,,0.000038708000,   0.08000,
,,,0.000038712000,   0.08000,
,,,0.000038716000,   0.08000,
,,,0.000038720000,   0.08000,
,,,0.000038724000,   0.08000,
,,,0.000038728000,   0.08000,
,,,0.000038732000,   0.08000,
,,,0.000038736000,   0.08000,
,,,0.000038740000,   0.08000,
,,,0.000038744000,   0.08000,
,,,0.000038748000,   0.08000,
,,,0.000038752000,   0.08000,
,,,0.000038756000,   0.08000,
,,,0.000038760000,   0.08000,
,,,0.000038764000,   0.08000,
,,,0.000038768000,   0.08000,
,,,0.000038772000,   0.08000,
,,,0.000038776000,   0.08000,
,,,0.000038780000,   0.08000,
,,,0.000038784000,   0.08000,
,,,0.000038788000,   0.08000,
,,,0.000038792000,   0.08000,
,,,0.000038796000,   0.08000,
,,,0.000038800000,   0.08000,
,,,0.000038804000,   0.08000,
,,,0.000038808000,   0.08000,
,,,0.000038812000,   0.08000,
,,,0.000038816000,   0.08000,
,,,0.000038820000,   0.08000,
,,,0.000038824000,   0.08000,
,,,0.000038828000,   0.08000,
,,,0.000038832000,   0.08000,
,,,0.000038836000,   0.08000,
,,,0.000038840000,   0.08000,
,,,0.000038844000,   0.08000,
,,,0.000038848000,   0.08000,
,,,0.000038852000,   0.08000,
,,,0.000038856000,   0.08000,
,,,0.000038860000,   0.08000,
,,,0.000038864000,   0.08000,
,,,0.000038868000,   0.08000,
,,,0.000038872000,   0.08000,
,,,0.000038876000,   0.08000,
,,,0.000038880000,   0.08000,
,,,0.000038884000,   0.08000,
,,,0.000038888000,   0.08000,
,,,0.000038892000,   0.08000,
,,,0.000038896000,   0.08000,
,,,0.000038900000,   0.08000,
,,,0.000038904000,   0.08000,
,,,0.000038908000,   0.08000,
,,,0.000038912000,   0.08000,
,,,0.000038916000,   0.08000,
,,,0.000038920000,   0.08000,
,,,0.000038924000,   0.08000,
,,,0.000038928000,   0.08000,
,,,0.000038932000,   0.08000,
,,,0.000038936000,   0.08000,
,,,0.000038940000,   0.08000,
,,,0.000038944000,   0.08000,
,,,0.000038948000,   0.08000,
,,,0.000038952000,   0.08000,
,,,0.000038956000,   0.08000,
,,,0.000038960000,   0.08000,
,,,0.000038964000,   0.08000,
,,,0.000038968000,   0.08000,
,,,0.000038972000,   0.08000,
,,,0.000038976000,   0.08000,
,,,0.000038980000,   0.08000,
,,,0.000038984000,   0.08000,
,,,0.000038988000,   0.08000,
,,,0.000038992000,   0.08000,
,,,0.000038996000,   0.08000,
,,,0.000039000000,   0.08000,
,,,0.000039004000,   0.08000,
,,,0.000039008000,   0.08000,
,,,0.000039012000,   0.08000,
,,,0.000039016000,   0.08000,
,,,0.000039020000,   0.08000,
,,,0.000039024000,   0.08000,
,,,0.000039028000,   0.08000,
,,,0.000039032000,   0.08000,
,,,0.000039036000,   0.08000,
,,,0.000039040000,   0.08000,
,,,0.000039044000,   0.08000,
,,,0.000039048000,   0.08000,
,,,0.000039052000,   0.08000,
,,,0.000039056000,   0.08000,
,,,0.000039060000,   0.08000,
,,,0.000039064000,   0.08000,
,,,0.000039068000,   0.08000,
,,,0.000039072000,   0.08000,
,,,0.000039076000,   0.08000,
,,,0.000039080000,   0.08000,
,,,0.000039084000,   0.08000,
,,,0.000039088000,   0.08000,
,,,0.000039092000,   0.08000,
,,,0.000039096000,   0.08000,
,,,0.000039100000,   0.08000,
,,,0.000039104000,   0.08000,
,,,0.000039108000,   0.08000,
,,,0.000039112000,   0.08000,
,,,0.000039116000,   0.08000,
,,,0.000039120000,   0.08000,
,,,0.000039124000,   0.08000,
,,,0.000039128000,   0.08000,
,,,0.000039132000,   0.16000,
,,,0.000039136000,   0.16000,
,,,0.000039140000,   0.08000,
,,,0.000039144000,   0.16000,
,,,0.000039148000,   0.16000,
,,,0.000039152000,   0.16000,
,,,0.000039156000,   0.16000,
,,,0.000039160000,   0.16000,
,,,0.000039164000,   0.16000,
,,,0.000039168000,   0.16000,
,,,0.000039172000,   0.16000,
,,,0.000039176000,   0.16000,
,,,0.000039180000,   0.16000,
,,,0.000039184000,   0.16000,
,,,0.000039188000,   0.16000,
,,,0.000039192000,   0.16000,
,,,0.000039196000,   0.16000,
,,,0.000039200000,   0.16000,
,,,0.000039204000,   0.16000,
,,,0.000039208000,   0.16000,
,,,0.000039212000,   0.16000,
,,,0.000039216000,   0.16000,
,,,0.000039220000,   0.16000,
,,,0.000039224000,   0.16000,
,,,0.000039228000,   0.16000,
,,,0.000039232000,   0.16000,
,,,0.000039236000,   0.16000,
,,,0.000039240000,   0.16000,
,,,0.000039244000,   0.16000,
,,,0.000039248000,   0.16000,
,,,0.000039252000,   0.16000,
,,,0.000039256000,   0.16000,
,,,0.000039260000,   0.16000,
,,,0.000039264000,   0.16000,
,,,0.000039268000,   0.16000,
,,,0.000039272000,   0.16000,
,,,0.000039276000,   0.24000,
,,,0.000039280000,   0.16000,
,,,0.000039284000,   0.24000,
,,,0.000039288000,   0.24000,
,,,0.000039292000,   0.24000,
,,,0.000039296000,   0.24000,
,,,0.000039300000,   0.24000,
,,,0.000039304000,   0.24000,
,,,0.000039308000,   0.24000,
,,,0.000039312000,   0.24000,
,,,0.000039316000,   0.24000,
,,,0.000039320000,   0.24000,
,,,0.000039324000,   0.24000,
,,,0.000039328000,   0.24000,
,,,0.000039332000,   0.24000,
,,,0.000039336000,   0.24000,
,,,0.000039340000,   0.24000,
,,,0.000039344000,   0.24000,
,,,0.000039348000,   0.24000,
,,,0.000039352000,   0.24000,
,,,0.000039356000,   0.24000,
,,,0.000039360000,   0.24000,
,,,0.000039364000,   0.24000,
,,,0.000039368000,   0.24000,
,,,0.000039372000,   0.24000,
,,,0.000039376000,   0.32000,
,,,0.000039380000,   0.24000,
,,,0.000039384000,   0.32000,
,,,0.000039388000,   0.32000,
,,,0.000039392000,   0.32000,
,,,0.000039396000,   0.32000,
,,,0.000039400000,   0.32000,
,,,0.000039404000,   0.32000,
,,,0.000039408000,   0.32000,
,,,0.000039412000,   0.32000,
,,,0.000039416000,   0.32000,
,,,0.000039420000,   0.32000,
,,,0.000039424000,   0.32000,
,,,0.000039428000,   0.32000,
,,,0.000039432000,   0.32000,
,,,0.000039436000,   0.32000,
,,,0.000039440000,   0.32000,
,,,0.000039444000,   0.32000,
,,,0.000039448000,   0.32000,
,,,0.000039452000,   0.32000,
,,,0.000039456000,   0.32000,
,,,0.000039460000,   0.40000,
,,,0.000039464000,   0.40000,
,,,0.000039468000,   0.32000,
,,,0.000039472000,   0.40000,
,,,0.000039476000,   0.40000,
,,,0.000039480000,   0.40000,
,,,0.000039484000,   0.40000,
,,,0.000039488000,   0.40000,
,,,0.000039492000,   0.40000,
,,,0.000039496000,   0.40000,
,,,0.000039500000,   0.40000,
,,,0.000039504000,   0.40000,
,,,0.000039508000,   0.40000,
,,,0.000039512000,   0.40000,
,,,0.000039516000,   0.40000,
,,,0.000039520000,   0.40000,
,,,0.000039524000,   0.40000,
,,,0.000039528000,   0.40000,
,,,0.000039532000,   0.48000,
,,,0.000039536000,   0.48000,
,,,0.000039540000,   0.48000,
,,,0.000039544000,   0.48000,
,,,0.000039548000,   0.48000,
,,,0.000039552000,   0.48000,
,,,0.000039556000,   0.48000,
,,,0.000039560000,   0.48000,
,,,0.000039564000,   0.48000,
,,,0.000039568000,   0.48000,
,,,0.000039572000,   0.48000,
,,,0.000039576000,   0.48000,
,,,0.000039580000,   0.48000,
,,,0.000039584000,   0.48000,
,,,0.000039588000,   0.48000,
,,,0.000039592000,   0.48000,
,,,0.000039596000,   0.56000,
,,,0.000039600000,   0.56000,
,,,0.000039604000,   0.56000,
,,,0.000039608000,   0.56000,
,,,0.000039612000,   0.56000,
,,,0.000039616000,   0.56000,
,,,0.000039620000,   0.56000,
,,,0.000039624000,   0.56000,
,,,0.000039628000,   0.56000,
,,,0.000039632000,   0.56000,
,,,0.000039636000,   0.56000,
,,,0.000039640000,   0.56000,
,,,0.000039644000,   0.56000,
,,,0.000039648000,   0.56000,
,,,0.000039652000,   0.56000,
,,,0.000039656000,   0.56000,
,,,0.000039660000,   0.64000,
,,,0.000039664000,   0.64000,
,,,0.000039668000,   0.64000,
,,,0.000039672000,   0.64000,
,,,0.000039676000,   0.64000,
,,,0.000039680000,   0.64000,
,,,0.000039684000,   0.64000,
,,,0.000039688000,   0.64000,
,,,0.000039692000,   0.64000,
,,,0.000039696000,   0.64000,
,,,0.000039700000,   0.64000,
,,,0.000039704000,   0.64000,
,,,0.000039708000,   0.64000,
,,,0.000039712000,   0.64000,
,,,0.000039716000,   0.64000,
,,,0.000039720000,   0.64000,
,,,0.000039724000,   0.64000,
,,,0.000039728000,   0.64000,
,,,0.000039732000,   0.64000,
,,,0.000039736000,   0.72000,
,,,0.000039740000,   0.72000,
,,,0.000039744000,   0.72000,
,,,0.000039748000,   0.72000,
,,,0.000039752000,   0.72000,
,,,0.000039756000,   0.72000,
,,,0.000039760000,   0.72000,
,,,0.000039764000,   0.72000,
,,,0.000039768000,   0.72000,
,,,0.000039772000,   0.72000,
,,,0.000039776000,   0.72000,
,,,0.000039780000,   0.72000,
,,,0.000039784000,   0.72000,
,,,0.000039788000,   0.72000,
,,,0.000039792000,   0.72000,
,,,0.000039796000,   0.72000,
,,,0.000039800000,   0.72000,
,,,0.000039804000,   0.72000,
,,,0.000039808000,   0.72000,
,,,0.000039812000,   0.72000,
,,,0.000039816000,   0.72000,
,,,0.000039820000,   0.72000,
,,,0.000039824000,   0.72000,
,,,0.000039828000,   0.72000,
,,,0.000039832000,   0.72000,
,,,0.000039836000,   0.80000,
,,,0.000039840000,   0.72000,
,,,0.000039844000,   0.72000,
,,,0.000039848000,   0.80000,
,,,0.000039852000,   0.80000,
,,,0.000039856000,   0.80000,
,,,0.000039860000,   0.80000,
,,,0.000039864000,   0.80000,
,,,0.000039868000,   0.80000,
,,,0.000039872000,   0.72000,
,,,0.000039876000,   0.80000,
,,,0.000039880000,   0.80000,
,,,0.000039884000,   0.80000,
,,,0.000039888000,   0.80000,
,,,0.000039892000,   0.80000,
,,,0.000039896000,   0.80000,
,,,0.000039900000,   0.72000,
,,,0.000039904000,   0.80000,
,,,0.000039908000,   0.80000,
,,,0.000039912000,   0.80000,
,,,0.000039916000,   0.72000,
,,,0.000039920000,   0.72000,
,,,0.000039924000,   0.72000,
,,,0.000039928000,   0.72000,
,,,0.000039932000,   0.72000,
,,,0.000039936000,   0.72000,
,,,0.000039940000,   0.72000,
,,,0.000039944000,   0.72000,
,,,0.000039948000,   0.72000,
,,,0.000039952000,   0.72000,
,,,0.000039956000,   0.72000,
,,,0.000039960000,   0.72000,
,,,0.000039964000,   0.72000,
,,,0.000039968000,   0.72000,
,,,0.000039972000,   0.72000,
,,,0.000039976000,   0.72000,
,,,0.000039980000,   0.72000,
,,,0.000039984000,   0.72000,
,,,0.000039988000,   0.72000,
,,,0.000039992000,   0.72000,
,,,0.000039996000,   0.64000,
,,,0.000040000000,   0.64000,
,,,0.000040004000,   0.64000,
,,,0.000040008000,   0.64000,
,,,0.000040012000,   0.64000,
,,,0.000040016000,   0.64000,
,,,0.000040020000,   0.64000,
,,,0.000040024000,   0.64000,
,,,0.000040028000,   0.64000,
,,,0.000040032000,   0.64000,
,,,0.000040036000,   0.64000,
,,,0.000040040000,   0.56000,
,,,0.000040044000,   0.56000,
,,,0.000040048000,   0.56000,
,,,0.000040052000,   0.56000,
,,,0.000040056000,   0.56000,
,,,0.000040060000,   0.56000,
,,,0.000040064000,   0.56000,
,,,0.000040068000,   0.56000,
,,,0.000040072000,   0.48000,
,,,0.000040076000,   0.48000,
,,,0.000040080000,   0.48000,
,,,0.000040084000,   0.48000,
,,,0.000040088000,   0.48000,
,,,0.000040092000,   0.48000,
,,,0.000040096000,   0.48000,
,,,0.000040100000,   0.40000,
,,,0.000040104000,   0.40000,
,,,0.000040108000,   0.40000,
,,,0.000040112000,   0.40000,
,,,0.000040116000,   0.40000,
,,,0.000040120000,   0.40000,
,,,0.000040124000,   0.32000,
,,,0.000040128000,   0.32000,
,,,0.000040132000,   0.32000,
,,,0.000040136000,   0.32000,
,,,0.000040140000,   0.32000,
,,,0.000040144000,   0.24000,
,,,0.000040148000,   0.24000,
,,,0.000040152000,   0.24000,
,,,0.000040156000,   0.24000,
,,,0.000040160000,   0.24000,
,,,0.000040164000,   0.24000,
,,,0.000040168000,   0.16000,
,,,0.000040172000,   0.16000,
,,,0.000040176000,   0.16000,
,,,0.000040180000,   0.16000,
,,,0.000040184000,   0.08000,
,,,0.000040188000,   0.08000,
,,,0.000040192000,   0.08000,
,,,0.000040196000,   0.08000,
,,,0.000040200000,   0.00000,
,,,0.000040204000,   0.00000,
,,,0.000040208000,   0.00000,
,,,0.000040212000,   0.00000,
,,,0.000040216000,   0.00000,
,,,0.000040220000,  -0.08000,
,,,0.000040224000,  -0.08000,
,,,0.000040228000,  -0.08000,
,,,0.000040232000,  -0.08000,
,,,0.000040236000,  -0.16000,
,,,0.000040240000,  -0.16000,
,,,0.000040244000,  -0.16000,
,,,0.000040248000,  -0.24000,
,,,0.000040252000,  -0.24000,
,,,0.000040256000,  -0.24000,
,,,0.000040260000,  -0.24000,
,,,0.000040264000,  -0.32000,
,,,0.000040268000,  -0.32000,
,,,0.000040272000,  -0.32000,
,,,0.000040276000,  -0.40000,
,,,0.000040280000,  -0.40000,
,,,0.000040284000,  -0.40000,
,,,0.000040288000,  -0.48000,
,,,0.000040292000,  -0.48000,
,,,0.000040296000,  -0.48000,
,,,0.000040300000,  -0.48000,
,,,0.000040304000,  -0.56000,
,,,0.000040308000,  -0.56000,
,,,0.000040312000,  -0.56000,
,,,0.000040316000,  -0.64000,
,,,0.000040320000,  -0.64000,
,,,0.000040324000,  -0.64000,
,,,0.000040328000,  -0.72000,
,,,0.000040332000,  -0.72000,
,,,0.000040336000,  -0.72000,
,,,0.000040340000,  -0.80000,
,,,0.000040344000,  -0.80000,
,,,0.000040348000,  -0.80000,
,,,0.000040352000,  -0.88000,
,,,0.000040356000,  -0.88000,
,,,0.000040360000,  -0.88000,
,,,0.000040364000,  -0.96000,
,,,0.000040368000,  -0.96000,
,,,0.000040372000,  -0.96000,
,,,0.000040376000,  -1.04000,
,,,0.000040380000,  -1.04000,
,,,0.000040384000,  -1.04000,
,,,0.000040388000,  -1.12000,
,,,0.000040392000,  -1.12000,
,,,0.000040396000,  -1.12000,
,,,0.000040400000,  -1.12000,
,,,0.000040404000,  -1.20000,
,,,0.000040408000,  -1.20000,
,,,0.000040412000,  -1.20000,
,,,0.000040416000,  -1.28000,
,,,0.000040420000,  -1.28000,
,,,0.000040424000,  -1.28000,
,,,0.000040428000,  -1.36000,
,,,0.000040432000,  -1.36000,
,,,0.000040436000,  -1.36000,
,,,0.000040440000,  -1.44000,
,,,0.000040444000,  -1.44000,
,,,0.000040448000,  -1.44000,
,,,0.000040452000,  -1.52000,
,,,0.000040456000,  -1.52000,
,,,0.000040460000,  -1.52000,
,,,0.000040464000,  -1.60000,
,,,0.000040468000,  -1.60000,
,,,0.000040472000,  -1.60000,
,,,0.000040476000,  -1.68000,
,,,0.000040480000,  -1.68000,
,,,0.000040484000,  -1.68000,
,,,0.000040488000,  -1.68000,
,,,0.000040492000,  -1.76000,
,,,0.000040496000,  -1.76000,
,,,0.000040500000,  -1.76000,
,,,0.000040504000,  -1.84000,
,,,0.000040508000,  -1.84000,
,,,0.000040512000,  -1.84000,
,,,0.000040516000,  -1.84000,
,,,0.000040520000,  -1.92000,
,,,0.000040524000,  -1.92000,
,,,0.000040528000,  -1.92000,
,,,0.000040532000,  -1.92000,
,,,0.000040536000,  -2.00000,
,,,0.000040540000,  -2.00000,
,,,0.000040544000,  -2.00000,
,,,0.000040548000,  -2.00000,
,,,0.000040552000,  -2.08000,
,,,0.000040556000,  -2.08000,
,,,0.000040560000,  -2.08000,
,,,0.000040564000,  -2.08000,
,,,0.000040568000,  -2.16000,
,,,0.000040572000,  -2.16000,
,,,0.000040576000,  -2.16000,
,,,0.000040580000,  -2.16000,
,,,0.000040584000,  -2.16000,
,,,0.000040588000,  -2.24000,
,,,0.000040592000,  -2.24000,
,,,0.000040596000,  -2.24000,
,,,0.000040600000,  -2.24000,
,,,0.000040604000,  -2.24000,
,,,0.000040608000,  -2.24000,
,,,0.000040612000,  -2.32000,
,,,0.000040616000,  -2.32000,
,,,0.000040620000,  -2.32000,
,,,0.000040624000,  -2.32000,
,,,0.000040628000,  -2.32000,
,,,0.000040632000,  -2.32000,
,,,0.000040636000,  -2.32000,
,,,0.000040640000,  -2.40000,
,,,0.000040644000,  -2.40000,
,,,0.000040648000,  -2.40000,
,,,0.000040652000,  -2.40000,
,,,0.000040656000,  -2.40000,
,,,0.000040660000,  -2.40000,
,,,0.000040664000,  -2.40000,
,,,0.000040668000,  -2.40000,
,,,0.000040672000,  -2.40000,
,,,0.000040676000,  -2.40000,
,,,0.000040680000,  -2.40000,
,,,0.000040684000,  -2.40000,
,,,0.000040688000,  -2.40000,
,,,0.000040692000,  -2.40000,
,,,0.000040696000,  -2.40000,
,,,0.000040700000,  -2.40000,
,,,0.000040704000,  -2.40000,
,,,0.000040708000,  -2.40000,
,,,0.000040712000,  -2.40000,
,,,0.000040716000,  -2.40000,
,,,0.000040720000,  -2.40000,
,,,0.000040724000,  -2.40000,
,,,0.000040728000,  -2.40000,
,,,0.000040732000,  -2.40000,
,,,0.000040736000,  -2.40000,
,,,0.000040740000,  -2.40000,
,,,0.000040744000,  -2.40000,
,,,0.000040748000,  -2.40000,
,,,0.000040752000,  -2.40000,
,,,0.000040756000,  -2.40000,
,,,0.000040760000,  -2.40000,
,,,0.000040764000,  -2.32000,
,,,0.000040768000,  -2.32000,
,,,0.000040772000,  -2.32000,
,,,0.000040776000,  -2.32000,
,,,0.000040780000,  -2.32000,
,,,0.000040784000,  -2.32000,
,,,0.000040788000,  -2.32000,
,,,0.000040792000,  -2.24000,
,,,0.000040796000,  -2.24000,
,,,0.000040800000,  -2.24000,
,,,0.000040804000,  -2.24000,
,,,0.000040808000,  -2.16000,
,,,0.000040812000,  -2.16000,
,,,0.000040816000,  -2.16000,
,,,0.000040820000,  -2.16000,
,,,0.000040824000,  -2.16000,
,,,0.000040828000,  -2.08000,
,,,0.000040832000,  -2.08000,
,,,0.000040836000,  -2.08000,
,,,0.000040840000,  -2.00000,
,,,0.000040844000,  -2.00000,
,,,0.000040848000,  -2.00000,
,,,0.000040852000,  -2.00000,
,,,0.000040856000,  -1.92000,
,,,0.000040860000,  -1.92000,
,,,0.000040864000,  -1.92000,
,,,0.000040868000,  -1.84000,
,,,0.000040872000,  -1.84000,
,,,0.000040876000,  -1.84000,
,,,0.000040880000,  -1.76000,
,,,0.000040884000,  -1.76000,
,,,0.000040888000,  -1.68000,
,,,0.000040892000,  -1.68000,
,,,0.000040896000,  -1.68000,
,,,0.000040900000,  -1.60000,
,,,0.000040904000,  -1.60000,
,,,0.000040908000,  -1.60000,
,,,0.000040912000,  -1.52000,
,,,0.000040916000,  -1.52000,
,,,0.000040920000,  -1.44000,
,,,0.000040924000,  -1.44000,
,,,0.000040928000,  -1.36000,
,,,0.000040932000,  -1.36000,
,,,0.000040936000,  -1.36000,
,,,0.000040940000,  -1.28000,
,,,0.000040944000,  -1.28000,
,,,0.000040948000,  -1.20000,
,,,0.000040952000,  -1.20000,
,,,0.000040956000,  -1.12000,
,,,0.000040960000,  -1.12000,
,,,0.000040964000,  -1.04000,
,,,0.000040968000,  -1.04000,
,,,0.000040972000,  -0.96000,
,,,0.000040976000,  -0.96000,
,,,0.000040980000,  -0.88000,
,,,0.000040984000,  -0.88000,
,,,0.000040988000,  -0.80000,
,,,0.000040992000,  -0.80000,
,,,0.000040996000,  -0.72000,
,,,0.000041000000,  -0.72000,
,,,0.000041004000,  -0.64000,
,,,0.000041008000,  -0.56000,
,,,0.000041012000,  -0.56000,
,,,0.000041016000,  -0.48000,
,,,0.000041020000,  -0.48000,
,,,0.000041024000,  -0.40000,
,,,0.000041028000,  -0.40000,
,,,0.000041032000,  -0.32000,
,,,0.000041036000,  -0.32000,
,,,0.000041040000,  -0.24000,
,,,0.000041044000,  -0.24000,
,,,0.000041048000,  -0.16000,
,,,0.000041052000,  -0.08000,
