Data/TEK0119.CSV

Record Length,2.500000e+03,,   0.000035300000,   0.00000,
Sample Interval,1.000000e-08,,   0.000035310000,   0.00000,
Trigger Point,-3.530000000000e+03,,   0.000035320000,   0.00000,
,,,   0.000035330000,   0.00000,
,,,   0.000035340000,   0.00000,
,,,   0.000035350000,   0.00000,
Source,CH1,,   0.000035360000,   0.00000,
Vertical Units,V,,   0.000035370000,   0.00000,
Vertical Scale,1.000000e+00,,   0.000035380000,   0.00000,
Vertical Offset,2.400000e-01,,   0.000035390000,   0.00000,
Horizontal Units,s,,   0.000035400000,   0.00000,
Horizontal Scale,2.500000e-06,,   0.000035410000,   0.00000,
Pt Fmt,Y,,   0.000035420000,   0.00000,
Yzero,0.000000e+00,,   0.000035430000,   0.00000,
Probe Atten,1.000000e+01,,   0.000035440000,   0.00000,
Model Number,TDS1012B,,   0.000035450000,   0.00000,
Serial Number,C010224,,   0.000035460000,   0.00000,
Firmware Version,FV:v21.20,,   0.000035470000,   0.00000,
,,,0.000035480000,   0.00000,
,,,0.000035490000,   0.00000,
,,,0.000035500000,   0.00000,
,,,0.000035510000,   0.00000,
,,,0.000035520000,   0.00000,
,,,0.000035530000,   0.00000,
,,,0.000035540000,   0.00000,
,,,0.000035550000,   0.00000,
,,,0.000035560000,   0.00000,
,,,0.000035570000,   0.00000,
,,,0.000035580000,   0.00000,
,,,0.000035590000,   0.00000,
,,,0.000035600000,   0.00000,
,,,0.000035610000,   0.00000,
,,,0.000035620000,   0.00000,
,,,0.000035630000,   0.00000,
,,,0.000035640000,   0.00000,
,,,0.000035650000,   0.00000,
,,,0.000035660000,   0.00000,
,,,0.000035670000,   0.00000,
,,,0.000035680000,   0.00000,
,,,0.000035690000,   0.00000,
,,,0.000035700000,   0.00000,
,,,0.000035710000,   0.00000,
,,,0.000035720000,   0.00000,
,,,0.000035730000,   0.00000,
,,,0.000035740000,   0.00000,
,,,0.000035750000,   0.00000,
,,,0.000035760000,   0.00000,
,,,0.000035770000,   0.00000,
,,,0.000035780000,   0.00000,
,,,0.000035790000,   0.00000,
,,,0.000035800000,   0.00000,
,,,0.000035810000,   0.00000,
,,,0.000035820000,   0.00000,
,,,0.000035830000,   0.00000,
,,,0.000035840000,   0.00000,
,,,0.000035850000,   0.00000,
,,,0.000035860000,   0.00000,
,,,0.000035870000,   0.00000,
,,,0.000035880000,   0.00000,
,,,0.000035890000,   0.00000,
,,,0.000035900000,   0.00000,
,,,0.000035910000,   0.00000,
,,,0.000035920000,   0.00000,
,,,0.000035930000,   0.00000,
,,,0.000035940000,   0.00000,
,,,0.000035950000,   0.00000,
,,,0.000035960000,   0.00000,
,,,0.000035970000,   0.00000,
,,,0.000035980000,   0.00000,
,,,0.000035990000,   0.00000,
,,,0.000036000000,   0.00000,
,,,0.000036010000,   0.00000,
,,,0.000036020000,   0.00000,
,,,0.000036030000,   0.00000,
,,,0.000036040000,   0.00000,
,,,0.000036050000,   0.00000,
,,,0.000036060000,   0.00000,
,,,0.000036070000,   0.00000,
,,,0.000036080000,   0.00000,
,,,0.000036090000,   0.00000,
,,,0.000036100000,   0.00000,
,,,0.000036110000,   0.00000,
,,,0.000036120000,   0.00000,
,,,0.000036130000,   0.00000,
,,,0.000036140000,   0.00000,
,,,0.000036150000,   0.00000,
,,,0.000036160000,   0.00000,
,,,0.000036170000,   0.00000,
,,,0.000036180000,   0.00000,
,,,0.000036190000,   0.00000,
,,,0.000036200000,   0.00000,
,,,0.000036210000,   0.00000,
,,,0.000036220000,   0.00000,
,,,0.000036230000,   0.00000,
,,,0.000036240000,   0.00000,
,,,0.000036250000,   0.00000,
,,,0.000036260000,   0.00000,
,,,0.000036270000,   0.00000,
,,,0.000036280000,   0.00000,
,,,0.000036290000,   0.00000,
,,,0.000036300000,   0.00000,
,,,0.000036310000,   0.00000,
,,,0.000036320000,   0.00000,
,,,0.000036330000,   0.00000,
,,,0.000036340000,   0.00000,
,,,0.000036350000,   0.00000,
,,,0.000036360000,   0.00000,
,,,0.000036370000,   0.00000,
,,,0.000036380000,   0.00000,
,,,0.000036390000,   0.00000,
,,,0.000036400000,   0.00000,
,,,0.000036410000,   0.00000,
,,,0.000036420000,   0.00000,
,,,0.000036430000,   0.00000,
,,,0.000036440000,   0.00000,
,,,0.000036450000,   0.00000,
,,,0.000036460000,   0.00000,
,,,0.000036470000,   0.00000,
,,,0.000036480000,   0.00000,
,,,0.000036490000,   0.00000,
,,,0.000036500000,   0.00000,
,,,0.000036510000,   0.00000,
,,,0.000036520000,   0.00000,
,,,0.000036530000,   0.00000,
,,,0.000036540000,   0.00000,
,,,0.000036550000,   0.00000,
,,,0.000036560000,   0.00000,
,,,0.000036570000,   0.00000,
,,,0.000036580000,   0.00000,
,,,0.000036590000,   0.00000,
,,,0.000036600000,   0.00000,
,,,0.000036610000,   0.00000,
,,,0.000036620000,   0.00000,
,,,0.000036630000,   0.00000,
,,,0.000036640000,   0.00000,
,,,0.000036650000,   0.00000,
,,,0.000036660000,   0.00000,
,,,0.000036670000,   0.00000,
,,,0.000036680000,   0.00000,
,,,0.000036690000,   0.00000,
,,,0.000036700000,   0.00000,
,,,0.000036710000,   0.00000,
,,,0.000036720000,   0.00000,
,,,0.000036730000,   0.00000,
,,,0.000036740000,   0.00000,
,,,0.000036750000,   0.00000,
,,,0.000036760000,   0.00000,
,,,0.000036770000,   0.00000,
,,,0.000036780000,   0.00000,
,,,0.000036790000,   0.00000,
,,,0.000036800000,   0.00000,
,,,0.000036810000,   0.00000,
,,,0.000036820000,   0.00000,
,,,0.000036830000,   0.00000,
,,,0.000036840000,   0.00000,
,,,0.000036850000,   0.00000,
,,,0.000036860000,   0.00000,
,,,0.000036870000,   0.00000,
,,,0.000036880000,   0.00000,
,,,0.000036890000,   0.00000,
,,,0.000036900000,   0.00000,
,,,0.000036910000,   0.00000,
,,,0.000036920000,   0.00000,
,,,0.000036930000,   0.00000,
,,,0.000036940000,   0.00000,
,,,0.000036950000,   0.00000,
,,,0.000036960000,   0.00000,
,,,0.000036970000,   0.00000,
,,,0.000036980000,   0.00000,
,,,0.000036990000,   0.00000,
,,,0.000037000000,   0.00000,
,,,0.000037010000,   0.00000,
,,,0.000037020000,   0.00000,
,,,0.000037030000,   0.00000,
,,,0.000037040000,   0.00000,
,,,0.000037050000,   0.00000,
,,,0.000037060000,   0.00000,
,,,0.000037070000,   0.00000,
,,,0.000037080000,   0.00000,
,,,0.000037090000,   0.00000,
,,,0.000037100000,   0.00000,
,,,0.000037110000,   0.00000,
,,,0.000037120000,   0.00000,
,,,0.000037130000,   0.00000,
,,,0.000037140000,   0.00000,
,,,0.000037150000,   0.00000,
,,,0.000037160000,   0.00000,
,,,0.000037170000,   0.00000,
,,,0.000037180000,   0.00000,
,,,0.000037190000,   0.00000,
,,,0.000037200000,   0.00000,
,,,0.000037210000,   0.00000,
,,,0.000037220000,   0.00000,
,,,0.000037230000,   0.00000,
,,,0.000037240000,   0.00000,
,,,0.000037250000,   0.00000,
,,,0.000037260000,   0.00000,
,,,0.000037270000,   0.00000,
,,,0.000037280000,   0.00000,
,,,0.000037290000,   0.00000,
,,,0.000037300000,   0.00000,
,,,0.000037310000,   0.00000,
,,,0.000037320000,   0.00000,
,,,0.000037330000,   0.00000,
,,,0.000037340000,   0.00000,
,,,0.000037350000,   0.00000,
,,,0.000037360000,   0.00000,
,,,0.000037370000,   0.00000,
,,,0.000037380000,   0.00000,
,,,0.000037390000,   0.00000,
,,,0.000037400000,   0.00000,
,,,0.000037410000,   0.00000,
,,,0.000037420000,   0.00000,
,,,0.000037430000,   0.00000,
,,,0.000037440000,   0.00000,
,,,0.000037450000,   0.00000,
,,,0.000037460000,   0.00000,
,,,0.000037470000,   0.00000,
,,,0.000037480000,   0.00000,
,,,0.000037490000,   0.00000,
,,,0.000037500000,   0.00000,
,,,0.000037510000,   0.00000,
,,,0.000037520000,   0.00000,
,,,0.000037530000,   0.00000,
,,,0.000037540000,   0.00000,
,,,0.000037550000,   0.00000,
,,,0.000037560000,   0.00000,
,,,0.000037570000,   0.00000,
,,,0.000037580000,   0.00000,
,,,0.000037590000,   0.00000,
,,,0.000037600000,   0.00000,
,,,0.000037610000,   0.00000,
,,,0.000037620000,   0.00000,
,,,0.000037630000,   0.00000,
,,,0.000037640000,   0.00000,
,,,0.000037650000,   0.00000,
,,,0.000037660000,   0.00000,
,,,0.000037670000,   0.00000,
,,,0.000037680000,   0.00000,
,,,0.000037690000,   0.00000,
,,,0.000037700000,   0.00000,
,,,0.000037710000,   0.00000,
,,,0.000037720000,   0.00000,
,,,0.000037730000,   0.00000,
,,,0.000037740000,   0.00000,
,,,0.000037750000,   0.00000,
,,,0.000037760000,   0.00000,
,,,0.000037770000,   0.00000,
,,,0.000037780000,   0.00000,
,,,0.000037790000,   0.00000,
,,,0.000037800000,   0.00000,
,,,0.000037810000,   0.00000,
,,,0.000037820000,   0.00000,
,,,0.000037830000,   0.00000,
,,,0.000037840000,   0.00000,
,,,0.000037850000,   0.00000,
,,,0.000037860000,   0.00000,
,,,0.000037870000,   0.00000,
,,,0.000037880000,   0.00000,
,,,0.000037890000,   0.00000,
,,,0.000037900000,   0.00000,
,,,0.000037910000,   0.00000,
,,,0.000037920000,   0.00000,
,,,0.000037930000,   0.00000,
,,,0.000037940000,   0.00000,
,,,0.000037950000,   0.00000,
,,,0.000037960000,   0.00000,
,,,0.000037970000,   0.00000,
,,,0.000037980000,   0.00000,
,,,0.000037990000,   0.00000,
,,,0.000038000000,   0.00000,
,,,0.000038010000,   0.00000,
,,,0.000038020000,   0.00000,
,,,0.000038030000,   0.00000,
,,,0.000038040000,   0.00000,
,,,0.000038050000,   0.00000,
,,,0.000038060000,   0.00000,
,,,0.000038070000,   0.00000,
,,,0.000038080000,   0.00000,
,,,0.000038090000,   0.00000,
,,,0.000038100000,   0.00000,
,,,0.000038110000,   0.00000,
,,,0.000038120000,   0.00000,
,,,0.000038130000,   0.00000,
,,,0.000038140000,   0.00000,
,,,0.000038150000,   0.00000,
,,,0.000038160000,   0.00000,
,,,0.000038170000,   0.00000,
,,,0.000038180000,   0.00000,
,,,0.000038190000,   0.00000,
,,,0.000038200000,   0.00000,
,,,0.000038210000,   0.00000,
,,,0.000038220000,   0.00000,
,,,0.000038230000,   0.00000,
,,,0.000038240000,   0.00000,
,,,0.000038250000,   0.00000,
,,,0.000038260000,   0.00000,
,,,0.000038270000,   0.00000,
,,,0.000038280000,   0.00000,
,,,0.000038290000,   0.00000,
,,,0.000038300000,   0.00000,
,,,0.000038310000,   0.00000,
,,,0.000038320000,   0.00000,
,,,0.000038330000,   0.00000,
,,,0.000038340000,   0.00000,
,,,0.000038350000,   0.00000,
,,,0.000038360000,   0.00000,
,,,0.000038370000,   0.00000,
,,,0.000038380000,   0.00000,
,,,0.000038390000,   0.00000,
,,,0.000038400000,   0.00000,
,,,0.000038410000,   0.00000,
,,,0.000038420000,   0.00000,
,,,0.000038430000,   0.00000,
,,,0.000038440000,   0.00000,
,,,0.000038450000,   0.00000,
,,,0.000038460000,   0.00000,
,,,0.000038470000,   0.00000,
,,,0.000038480000,   0.00000,
,,,0.000038490000,   0.00000,
,,,0.000038500000,   0.00000,
,,,0.000038510000,   0.00000,
,,,0.000038520000,   0.00000,
,,,0.000038530000,   0.00000,
,,,0.000038540000,   0.00000,
,,,0.000038550000,   0.00000,
,,,0.000038560000,   0.00000,
,,,0.000038570000,   0.00000,
,,,0.000038580000,   0.00000,
,,,0.000038590000,   0.00000,
,,,0.000038600000,   0.00000,
,,,0.000038610000,   0.00000,
,,,0.000038620000,   0.00000,
,,,0.000038630000,   0.00000,
,,,0.000038640000,   0.00000,
,,,0.000038650000,   0.00000,
,,,0.000038660000,   0.00000,
,,,0.000038670000,   0.00000,
,,,0.000038680000,   0.00000,
,,,0.000038690000,   0.00000,
,,,0.000038700000,   0.00000,
,,,0.000038710000,   0.00000,
,,,0.000038720000,   0.00000,
,,,0.000038730000,   0.00000,
,,,0.000038740000,   0.00000,
,,,0.000038750000,   0.00000,
,,,0.000038760000,   0.00000,
,,,0.000038770000,   0.00000,
,,,0.000038780000,   0.00000,
,,,0.000038790000,   0.00000,
,,,0.000038800000,   0.00000,
,,,0.000038810000,   0.00000,
,,,0.000038820000,   0.00000,
,,,0.000038830000,   0.00000,
,,,0.000038840000,   0.00000,
,,,0.000038850000,   0.00000,
,,,0.000038860000,   0.00000,
,,,0.000038870000,   0.00000,
,,,0.000038880000,   0.00000,
,,,0.000038890000,   0.00000,
,,,0.000038900000,   0.00000,
,,,0.000038910000,   0.00000,
,,,0.000038920000,   0.04000,
,,,0.000038930000,   0.04000,
,,,0.000038940000,   0.04000,
,,,0.000038950000,   0.04000,
,,,0.000038960000,   0.04000,
,,,0.000038970000,   0.04000,
,,,0.000038980000,   0.04000,
,,,0.000038990000,   0.04000,
,,,0.000039000000,   0.04000,
,,,0.000039010000,   0.04000,
,,,0.000039020000,   0.04000,
,,,0.000039030000,   0.04000,
,,,0.000039040000,   0.04000,
,,,0.000039050000,   0.04000,
,,,0.000039060000,   0.04000,
,,,0.000039070000,   0.04000,
,,,0.000039080000,   0.04000,
,,,0.000039090000,   0.04000,
,,,0.000039100000,   0.04000,
,,,0.000039110000,   0.04000,
,,,0.000039120000,   0.08000,
,,,0.000039130000,   0.08000,
,,,0.000039140000,   0.08000,
,,,0.000039150000,   0.08000,
,,,0.000039160000,   0.08000,
,,,0.000039170000,   0.08000,
,,,0.000039180000,   0.08000,
,,,0.000039190000,   0.08000,
,,,0.000039200000,   0.08000,
,,,0.000039210000,   0.08000,
,,,0.000039220000,   0.12000,
,,,0.000039230000,   0.12000,
,,,0.000039240000,   0.12000,
,,,0.000039250000,   0.12000,
,,,0.000039260000,   0.12000,
,,,0.000039270000,   0.12000,
,,,0.000039280000,   0.12000,
,,,0.000039290000,   0.16000,
,,,0.000039300000,   0.16000,
,,,0.000039310000,   0.16000,
,,,0.000039320000,   0.16000,
,,,0.000039330000,   0.16000,
,,,0.000039340000,   0.20000,
,,,0.000039350000,   0.20000,
,,,0.000039360000,   0.20000,
,,,0.000039370000,   0.20000,
,,,0.000039380000,   0.24000,
,,,0.000039390000,   0.24000,
,,,0.000039400000,   0.24000,
,,,0.000039410000,   0.24000,
,,,0.000039420000,   0.24000,
,,,0.000039430000,   0.28000,
,,,0.000039440000,   0.28000,
,,,0.000039450000,   0.28000,
,,,0.000039460000,   0.32000,
,,,0.000039470000,   0.32000,
,,,0.000039480000,   0.32000,
,,,0.000039490000,   0.32000,
,,,0.000039500000,   0.36000,
,,,0.000039510000,   0.36000,
,,,0.000039520000,   0.36000,
,,,0.000039530000,   0.40000,
,,,0.000039540000,   0.40000,
,,,0.000039550000,   0.44000,
,,,0.000039560000,   0.44000,
,,,0.000039570000,   0.44000,
,,,0.000039580000,   0.48000,
,,,0.000039590000,   0.48000,
,,,0.000039600000,   0.52000,
,,,0.000039610000,   0.52000,
,,,0.000039620000,   0.56000,
,,,0.000039630000,   0.56000,
,,,0.000039640000,   0.60000,
,,,0.000039650000,   0.60000,
,,,0.000039660000,   0.60000,
,,,0.000039670000,   0.64000,
,,,0.000039680000,   0.64000,
,,,0.000039690000,   0.68000,
,,,0.000039700000,   0.68000,
,,,0.000039710000,   0.72000,
,,,0.000039720000,   0.72000,
,,,0.000039730000,   0.76000,
,,,0.000039740000,   0.76000,
,,,0.000039750000,   0.80000,
,,,0.000039760000,   0.80000,
,,,0.000039770000,   0.84000,
,,,0.000039780000,   0.84000,
,,,0.000039790000,   0.88000,
,,,0.000039800000,   0.92000,
,,,0.000039810000,   0.92000,
,,,0.000039820000,   0.96000,
,,,0.000039830000,   0.96000,
,,,0.000039840000,   1.00000,
,,,0.000039850000,   1.00000,
,,,0.000039860000,   1.04000,
,,,0.000039870000,   1.04000,
,,,0.000039880000,   1.08000,
,,,0.000039890000,   1.08000,
,,,0.000039900000,   1.12000,
,,,0.000039910000,   1.12000,
,,,0.000039920000,   1.12000,
,,,0.000039930000,   1.16000,
,,,0.000039940000,   1.16000,
,,,0.000039950000,   1.20000,
,,,0.000039960000,   1.20000,
,,,0.000039970000,   1.24000,
,,,0.000039980000,   1.24000,
,,,0.000039990000,   1.24000,
,,,0.000040000000,   1.28000,
,,,0.000040010000,   1.28000,
,,,0.000040020000,   1.28000,
,,,0.000040030000,   1.28000,
,,,0.000040040000,   1.32000,
,,,0.000040050000,   1.32000,
,,,0.000040060000,   1.32000,
,,,0.000040070000,   1.32000,
,,,0.000040080000,   1.32000,
,,,0.000040090000,   1.32000,
,,,0.000040100000,   1.32000,
,,,0.000040110000,   1.32000,
,,,0.000040120000,   1.32000,
,,,0.000040130000,   1.32000,
,,,0.000040140000,   1.32000,
,,,0.000040150000,   1.32000,
,,,0.000040160000,   1.32000,
,,,0.000040170000,   1.28000,
,,,0.000040180000,   1.28000,
,,,0.000040190000,   1.28000,
,,,0.000040200000,   1.24000,
,,,0.000040210000,   1.24000,
,,,0.000040220000,   1.20000,
,,,0.000040230000,   1.20000,
,,,0.000040240000,   1.16000,
,,,0.000040250000,   1.12000,
,,,0.000040260000,   1.08000,
,,,0.000040270000,   1.08000,
,,,0.000040280000,   1.04000,
,,,0.000040290000,   1.00000,
,,,0.000040300000,   0.96000,
,,,0.000040310000,   0.92000,
,,,0.000040320000,   0.88000,
,,,0.000040330000,   0.84000,
,,,0.000040340000,   0.76000,
,,,0.000040350000,   0.72000,
,,,0.000040360000,   0.68000,
,,,0.000040370000,   0.64000,
,,,0.000040380000,   0.56000,
,,,0.000040390000,   0.52000,
,,,0.000040400000,   0.44000,
,,,0.000040410000,   0.36000,
,,,0.000040420000,   0.32000,
,,,0.000040430000,   0.24000,
,,,0.000040440000,   0.16000,
,,,0.000040450000,   0.08000,
,,,0.000040460000,   0.04000,
,,,0.000040470000,  -0.04000,
,,,0.000040480000,  -0.12000,
,,,0.000040490000,  -0.20000,
,,,0.000040500000,  -0.28000,
,,,0.000040510000,  -0.40000,
,,,0.000040520000,  -0.48000,
,,,0.000040530000,  -0.56000,
,,,0.000040540000,  -0.64000,
,,,0.000040550000,  -0.76000,
,,,0.000040560000,  -0.84000,
,,,0.000040570000,  -0.92000,
,,,0.000040580000,  -1.00000,
,,,0.000040590000,  -1.12000,
,,,0.000040600000,  -1.20000,
,,,0.000040610000,  -1.32000,
,,,0.000040620000,  -1.40000,
,,,0.000040630000,  -1.48000,
,,,0.000040640000,  -1.60000,
,,,0.000040650000,  -1.68000,
,,,0.000040660000,  -1.80000,
,,,0.000040670000,  -1.88000,
,,,0.000040680000,  -1.96000,
,,,0.000040690000,  -2.08000,
,,,0.000040700000,  -2.16000,
,,,0.000040710000,  -2.24000,
,,,0.000040720000,  -2.36000,
,,,0.000040730000,  -2.44000,
,,,0.000040740000,  -2.52000,
,,,0.000040750000,  -2.64000,
,,,0.000040760000,  -2.72000,
,,,0.000040770000,  -2.80000,
,,,0.000040780000,  -2.88000,
,,,0.000040790000,  -2.96000,
,,,0.000040800000,  -3.04000,
,,,0.000040810000,  -3.12000,
,,,0.000040820000,  -3.20000,
,,,0.000040830000,  -3.28000,
,,,0.000040840000,  -3.32000,
,,,0.000040850000,  -3.40000,
,,,0.000040860000,  -3.48000,
,,,0.000040870000,  -3.52000,
,,,0.000040880000,  -3.60000,
,,,0.000040890000,  -3.64000,
,,,0.000040900000,  -3.68000,
,,,0.000040910000,  -3.72000,
,,,0.000040920000,  -3.76000,
,,,0.000040930000,  -3.80000,
,,,0.000040940000,  -3.84000,
,,,0.000040950000,  -3.88000,
,,,0.000040960000,  -3.92000,
,,,0.000040970000,  -3.92000,
,,,0.000040980000,  -3.96000,
,,,0.000040990000,  -3.96000,
,,,0.000041000000,  -4.00000,
,,,0.000041010000,  -4.00000,
,,,0.000041020000,  -4.00000,
,,,0.000041030000,  -4.00000,
,,,0.000041040000,  -4.00000,
,,,0.000041050000,  -4.00000,
,,,0.000041060000,  -3.96000,
,,,0.000041070000,  -3.96000,
,,,0.000041080000,  -3.92000,
,,,0.000041090000,  -3.92000,
,,,0.000041100000,  -3.88000,
,,,0.000041110000,  -3.84000,
,,,0.000041120000,  -3.80000,
,,,0.000041130000,  -3.76000,
,,,0.000041140000,  -3.72000,
,,,0.000041150000,  -3.64000,
,,,0.000041160000,  -3.60000,
,,,0.000041170000,  -3.56000,
,,,0.000041180000,  -3.48000,
,,,0.000041190000,  -3.40000,
,,,0.000041200000,  -3.36000,
,,,0.000041210000,  -3.28000,
,,,0.000041220000,  -3.20000,
,,,0.000041230000,  -3.12000,
,,,0.000041240000,  -3.04000,
,,,0.000041250000,  -2.96000,
,,,0.000041260000,  -2.88000,
,,,0.000041270000,  -2.76000,
,,,0.000041280000,  -2.68000,
,,,0.000041290000,  -2.56000,
,,,0.000041300000,  -2.48000,
,,,0.000041310000,  -2.40000,
,,,0.000041320000,  -2.28000,
,,,0.000041330000,  -2.16000,
,,,0.000041340000,  -2.08000,
,,,0.000041350000,  -1.96000,
,,,0.000041360000,  -1.84000,
,,,0.000041370000,  -1.76000,
,,,0.000041380000,  -1.64000,
,,,0.000041390000,  -1.52000,
,,,0.000041400000,  -1.40000,
,,,0.000041410000,  -1.32000,
,,,0.000041420000,  -1.20000,
,,,0.000041430000,  -1.08000,
,,,0.000041440000,  -0.96000,
,,,0.000041450000,  -0.84000,
,,,0.000041460000,  -0.76000,
,,,0.000041470000,  -0.64000,
,,,0.000041480000,  -0.52000,
,,,0.000041490000,  -0.44000,
,,,0.000041500000,  -0.32000,
,,,0.000041510000,  -0.20000,
,,,0.000041520000,  -0.12000,
,,,0.000041530000,   0.00000,
,,,0.000041540000,   0.08000,
,,,0.000041550000,   0.20000,
,,,0.000041560000,   0.28000,
,,,0.000041570000,   0.36000,
,,,0.000041580000,   0.48000,
,,,0.000041590000,   0.56000,
,,,0.000041600000,   0.64000,
,,,0.000041610000,   0.72000,
,,,0.000041620000,   0.80000,
,,,0.000041630000,   0.88000,
,,,0.000041640000,   0.96000,
,,,0.000041650000,   1.04000,
,,,0.000041660000,   1.08000,
,,,0.000041670000,   1.16000,
,,,0.000041680000,   1.24000,
,,,0.000041690000,   1.28000,
,,,0.000041700000,   1.36000,
,,,0.000041710000,   1.40000,
,,,0.000041720000,   1.44000,
,,,0.000041730000,   1.52000,
,,,0.000041740000,   1.56000,
,,,0.000041750000,   1.60000,
,,,0.000041760000,   1.64000,
,,,0.000041770000,   1.68000,
,,,0.000041780000,   1.72000,
,,,0.000041790000,   1.76000,
,,,0.000041800000,   1.76000,
,,,0.000041810000,   1.80000,
,,,0.000041820000,   1.84000,
,,,0.000041830000,   1.88000,
